##########
# OPINION MODIFIERS
##########

# Destroyed Caravaneer Tradestation
opinion_destroyed_caravaneer_home = {
	opinion = {
		base = 40
	}

	max = 100

	decay = {
		base = -1
	}
}

# triggered_opinion_of_interstellar_assembly_1 = {
# 	trigger = {			
# 		FROM = {
# 			any_owned_megastructure = {
# 				is_megastructure_type = interstellar_assembly_1
# 			}
# 		}
# 	}
# 	opinion = {
# 		base = 10
# 	}
# }

# triggered_opinion_of_interstellar_assembly_2 = {
# 	trigger = {			
# 		FROM = {
# 			any_owned_megastructure = {
# 				is_megastructure_type = interstellar_assembly_2
# 			}
# 		}
# 	}
# 	opinion = {
# 		base = 20
# 	}
# }

# triggered_opinion_of_interstellar_assembly_3 = {
# 	trigger = {			
# 		FROM = {
# 			any_owned_megastructure = {
# 				is_megastructure_type = interstellar_assembly_3
# 			}
# 		}
# 	}
# 	opinion = {
# 		base = 30
# 	}
# }

# triggered_opinion_of_interstellar_assembly_4 = {
# 	trigger = {			
# 		FROM = {
# 			any_owned_megastructure = {
# 				OR = {
# 					is_megastructure_type = interstellar_assembly_4
# 					is_megastructure_type = interstellar_assembly_restored
# 				}
# 			}
# 		}
# 	}
# 	opinion = {
# 		base = 50
# 	}
# }