info face="Trajan Pro" size=-24 bold=0 italic=0 charset="ANSI" unicode=0 stretchH=100 smooth=1 aa=2 padding=0,0,0,0 spacing=1,1 outline=0
common lineHeight=30 base=24 scaleW=256 scaleH=256 pages=1 packed=0 alphaChnl=0 redChnl=4 greenChnl=4 blueChnl=4
page id=0 file="1_0.dds"
chars count=218
char id=32   x=144   y=47    width=2     height=1     xoffset=0     yoffset=29    xadvance=8     page=0  chnl=15
char id=33   x=108   y=152   width=3     height=19    xoffset=2     yoffset=5     xadvance=7     page=0  chnl=15
char id=34   x=31    y=209   width=5     height=7     xoffset=1     yoffset=5     xadvance=8     page=0  chnl=15
char id=35   x=164   y=132   width=13    height=19    xoffset=1     yoffset=5     xadvance=13    page=0  chnl=15
char id=36   x=129   y=0     width=10    height=24    xoffset=2     yoffset=3     xadvance=13    page=0  chnl=15
char id=37   x=227   y=89    width=19    height=19    xoffset=1     yoffset=5     xadvance=21    page=0  chnl=15
char id=38   x=122   y=92    width=21    height=19    xoffset=1     yoffset=5     xadvance=18    page=0  chnl=15
char id=39   x=253   y=22    width=2     height=7     xoffset=1     yoffset=5     xadvance=5     page=0  chnl=15
char id=40   x=190   y=47    width=6     height=21    xoffset=1     yoffset=6     xadvance=8     page=0  chnl=15
char id=41   x=183   y=47    width=6     height=21    xoffset=2     yoffset=6     xadvance=8     page=0  chnl=15
char id=42   x=22    y=209   width=8     height=8     xoffset=0     yoffset=4     xadvance=8     page=0  chnl=15
char id=43   x=195   y=187   width=11    height=11    xoffset=0     yoffset=12    xadvance=12    page=0  chnl=15
char id=44   x=54    y=209   width=3     height=6     xoffset=1     yoffset=20    xadvance=6     page=0  chnl=15
char id=45   x=114   y=204   width=8     height=3     xoffset=1     yoffset=16    xadvance=9     page=0  chnl=15
char id=46   x=131   y=201   width=3     height=3     xoffset=2     yoffset=21    xadvance=6     page=0  chnl=15
char id=47   x=150   y=132   width=13    height=19    xoffset=0     yoffset=5     xadvance=13    page=0  chnl=15
char id=48   x=243   y=129   width=12    height=19    xoffset=1     yoffset=5     xadvance=13    page=0  chnl=15
char id=49   x=80    y=154   width=9     height=19    xoffset=2     yoffset=5     xadvance=13    page=0  chnl=15
char id=50   x=230   y=130   width=12    height=19    xoffset=1     yoffset=5     xadvance=13    page=0  chnl=15
char id=51   x=13    y=155   width=11    height=19    xoffset=1     yoffset=5     xadvance=13    page=0  chnl=15
char id=52   x=136   y=132   width=13    height=19    xoffset=0     yoffset=5     xadvance=13    page=0  chnl=15
char id=53   x=49    y=155   width=10    height=19    xoffset=2     yoffset=5     xadvance=13    page=0  chnl=15
char id=54   x=217   y=130   width=12    height=19    xoffset=1     yoffset=5     xadvance=13    page=0  chnl=15
char id=55   x=204   y=130   width=12    height=19    xoffset=2     yoffset=5     xadvance=13    page=0  chnl=15
char id=56   x=191   y=132   width=12    height=19    xoffset=1     yoffset=5     xadvance=13    page=0  chnl=15
char id=57   x=0     y=94    width=12    height=20    xoffset=1     yoffset=5     xadvance=13    page=0  chnl=15
char id=58   x=251   y=184   width=3     height=11    xoffset=2     yoffset=12    xadvance=6     page=0  chnl=15
char id=59   x=106   y=190   width=3     height=15    xoffset=2     yoffset=12    xadvance=6     page=0  chnl=15
char id=60   x=147   y=188   width=11    height=11    xoffset=0     yoffset=12    xadvance=12    page=0  chnl=15
char id=61   x=58    y=209   width=11    height=5     xoffset=1     yoffset=15    xadvance=12    page=0  chnl=15
char id=62   x=171   y=187   width=11    height=11    xoffset=1     yoffset=12    xadvance=12    page=0  chnl=15
char id=63   x=70    y=155   width=9     height=19    xoffset=1     yoffset=5     xadvance=11    page=0  chnl=15
char id=64   x=0     y=115   width=19    height=19    xoffset=1     yoffset=8     xadvance=21    page=0  chnl=15
char id=65   x=60    y=114   width=19    height=19    xoffset=-1    yoffset=5     xadvance=17    page=0  chnl=15
char id=66   x=219   y=68    width=13    height=20    xoffset=2     yoffset=5     xadvance=16    page=0  chnl=15
char id=67   x=0     y=135   width=17    height=19    xoffset=1     yoffset=5     xadvance=19    page=0  chnl=15
char id=68   x=20    y=73    width=19    height=20    xoffset=2     yoffset=5     xadvance=22    page=0  chnl=15
char id=69   x=37    y=94    width=11    height=20    xoffset=2     yoffset=5     xadvance=14    page=0  chnl=15
char id=70   x=25    y=155   width=11    height=19    xoffset=2     yoffset=5     xadvance=14    page=0  chnl=15
char id=71   x=196   y=110   width=18    height=19    xoffset=1     yoffset=5     xadvance=20    page=0  chnl=15
char id=72   x=186   y=90    width=20    height=19    xoffset=2     yoffset=5     xadvance=23    page=0  chnl=15
char id=73   x=100   y=153   width=7     height=19    xoffset=2     yoffset=5     xadvance=10    page=0  chnl=15
char id=74   x=18    y=0     width=8     height=25    xoffset=1     yoffset=5     xadvance=10    page=0  chnl=15
char id=75   x=120   y=112   width=18    height=19    xoffset=2     yoffset=5     xadvance=18    page=0  chnl=15
char id=76   x=233   y=68    width=12    height=20    xoffset=2     yoffset=5     xadvance=14    page=0  chnl=15
char id=77   x=97    y=92    width=24    height=19    xoffset=1     yoffset=5     xadvance=25    page=0  chnl=15
char id=78   x=165   y=92    width=20    height=19    xoffset=1     yoffset=5     xadvance=22    page=0  chnl=15
char id=79   x=40    y=115   width=19    height=19    xoffset=1     yoffset=5     xadvance=22    page=0  chnl=15
char id=80   x=178   y=132   width=12    height=19    xoffset=2     yoffset=5     xadvance=15    page=0  chnl=15
char id=81   x=30    y=0     width=35    height=24    xoffset=1     yoffset=5     xadvance=22    page=0  chnl=15
char id=82   x=100   y=112   width=19    height=19    xoffset=2     yoffset=5     xadvance=18    page=0  chnl=15
char id=83   x=60    y=155   width=9     height=19    xoffset=2     yoffset=5     xadvance=13    page=0  chnl=15
char id=84   x=89    y=133   width=16    height=19    xoffset=0     yoffset=5     xadvance=16    page=0  chnl=15
char id=85   x=207   y=90    width=19    height=19    xoffset=0     yoffset=5     xadvance=20    page=0  chnl=15
char id=86   x=144   y=92    width=20    height=19    xoffset=0     yoffset=5     xadvance=18    page=0  chnl=15
char id=87   x=69    y=93    width=27    height=19    xoffset=0     yoffset=5     xadvance=26    page=0  chnl=15
char id=88   x=215   y=110   width=17    height=19    xoffset=0     yoffset=5     xadvance=16    page=0  chnl=15
char id=89   x=139   y=112   width=18    height=19    xoffset=-1    yoffset=5     xadvance=15    page=0  chnl=15
char id=90   x=106   y=132   width=14    height=19    xoffset=1     yoffset=5     xadvance=16    page=0  chnl=15
char id=91   x=204   y=47    width=5     height=21    xoffset=2     yoffset=6     xadvance=8     page=0  chnl=15
char id=92   x=126   y=152   width=12    height=18    xoffset=0     yoffset=6     xadvance=12    page=0  chnl=15
char id=93   x=197   y=47    width=6     height=21    xoffset=1     yoffset=6     xadvance=8     page=0  chnl=15
char id=94   x=159   y=187   width=11    height=11    xoffset=0     yoffset=5     xadvance=12    page=0  chnl=15
char id=95   x=139   y=201   width=12    height=2     xoffset=0     yoffset=25    xadvance=12    page=0  chnl=15
char id=96   x=92    y=208   width=6     height=4     xoffset=7     yoffset=1     xadvance=22    page=0  chnl=15
char id=97   x=62    y=175   width=17    height=16    xoffset=0     yoffset=8     xadvance=15    page=0  chnl=15
char id=98   x=14    y=192   width=12    height=16    xoffset=1     yoffset=8     xadvance=14    page=0  chnl=15
char id=99   x=221   y=167   width=15    height=16    xoffset=1     yoffset=8     xadvance=17    page=0  chnl=15
char id=100  x=157   y=152   width=17    height=17    xoffset=1     yoffset=8     xadvance=19    page=0  chnl=15
char id=101  x=77    y=192   width=11    height=16    xoffset=1     yoffset=8     xadvance=13    page=0  chnl=15
char id=102  x=53    y=192   width=11    height=16    xoffset=1     yoffset=8     xadvance=13    page=0  chnl=15
char id=103  x=204   y=169   width=16    height=16    xoffset=1     yoffset=8     xadvance=18    page=0  chnl=15
char id=104  x=152   y=170   width=17    height=16    xoffset=1     yoffset=8     xadvance=20    page=0  chnl=15
char id=105  x=99    y=190   width=6     height=16    xoffset=2     yoffset=8     xadvance=9     page=0  chnl=15
char id=106  x=152   y=47    width=7     height=21    xoffset=0     yoffset=8     xadvance=9     page=0  chnl=15
char id=107  x=170   y=170   width=16    height=16    xoffset=1     yoffset=8     xadvance=16    page=0  chnl=15
char id=108  x=65    y=192   width=11    height=16    xoffset=1     yoffset=8     xadvance=13    page=0  chnl=15
char id=109  x=0     y=175   width=22    height=16    xoffset=1     yoffset=8     xadvance=22    page=0  chnl=15
char id=110  x=116   y=171   width=17    height=16    xoffset=1     yoffset=8     xadvance=20    page=0  chnl=15
char id=111  x=134   y=171   width=17    height=16    xoffset=1     yoffset=8     xadvance=19    page=0  chnl=15
char id=112  x=27    y=192   width=12    height=16    xoffset=1     yoffset=8     xadvance=14    page=0  chnl=15
char id=113  x=36    y=50    width=31    height=21    xoffset=1     yoffset=8     xadvance=19    page=0  chnl=15
char id=114  x=44    y=175   width=17    height=16    xoffset=1     yoffset=8     xadvance=16    page=0  chnl=15
char id=115  x=89    y=191   width=9     height=16    xoffset=1     yoffset=8     xadvance=12    page=0  chnl=15
char id=116  x=241   y=150   width=14    height=16    xoffset=0     yoffset=8     xadvance=14    page=0  chnl=15
char id=117  x=80    y=174   width=17    height=16    xoffset=0     yoffset=8     xadvance=17    page=0  chnl=15
char id=118  x=98    y=173   width=17    height=16    xoffset=0     yoffset=8     xadvance=15    page=0  chnl=15
char id=119  x=193   y=152   width=24    height=16    xoffset=0     yoffset=8     xadvance=23    page=0  chnl=15
char id=120  x=237   y=167   width=15    height=16    xoffset=0     yoffset=8     xadvance=14    page=0  chnl=15
char id=121  x=187   y=170   width=16    height=16    xoffset=-1    yoffset=8     xadvance=14    page=0  chnl=15
char id=122  x=0     y=192   width=13    height=16    xoffset=2     yoffset=8     xadvance=14    page=0  chnl=15
char id=123  x=160   y=47    width=7     height=21    xoffset=1     yoffset=6     xadvance=8     page=0  chnl=15
char id=124  x=27    y=0     width=2     height=25    xoffset=5     yoffset=5     xadvance=12    page=0  chnl=15
char id=125  x=176   y=47    width=6     height=21    xoffset=1     yoffset=6     xadvance=8     page=0  chnl=15
char id=126  x=82    y=209   width=9     height=4     xoffset=1     yoffset=16    xadvance=12    page=0  chnl=15
char id=128  x=254   y=30    width=1     height=5     xoffset=0     yoffset=12    xadvance=8     page=0  chnl=15
char id=130  x=218   y=167   width=2     height=1     xoffset=0     yoffset=29    xadvance=8     page=0  chnl=15
char id=131  x=150   y=47    width=1     height=1     xoffset=0     yoffset=29    xadvance=8     page=0  chnl=15
char id=132  x=112   y=171   width=2     height=1     xoffset=0     yoffset=29    xadvance=8     page=0  chnl=15
char id=133  x=213   y=150   width=2     height=1     xoffset=0     yoffset=29    xadvance=8     page=0  chnl=15
char id=134  x=199   y=130   width=2     height=1     xoffset=0     yoffset=29    xadvance=8     page=0  chnl=15
char id=135  x=196   y=130   width=2     height=1     xoffset=0     yoffset=29    xadvance=8     page=0  chnl=15
char id=136  x=172   y=90    width=2     height=1     xoffset=0     yoffset=29    xadvance=8     page=0  chnl=15
char id=137  x=169   y=90    width=2     height=1     xoffset=0     yoffset=29    xadvance=8     page=0  chnl=15
char id=138  x=166   y=90    width=2     height=1     xoffset=0     yoffset=29    xadvance=8     page=0  chnl=15
char id=139  x=158   y=69    width=2     height=1     xoffset=0     yoffset=29    xadvance=8     page=0  chnl=15
char id=140  x=161   y=69    width=2     height=1     xoffset=0     yoffset=29    xadvance=8     page=0  chnl=15
char id=142  x=204   y=150   width=2     height=1     xoffset=0     yoffset=29    xadvance=8     page=0  chnl=15
char id=145  x=155   y=69    width=2     height=1     xoffset=0     yoffset=29    xadvance=8     page=0  chnl=15
char id=146  x=178   y=90    width=2     height=1     xoffset=0     yoffset=29    xadvance=8     page=0  chnl=15
char id=147  x=147   y=47    width=2     height=1     xoffset=0     yoffset=29    xadvance=8     page=0  chnl=15
char id=148  x=152   y=69    width=2     height=1     xoffset=0     yoffset=29    xadvance=8     page=0  chnl=15
char id=149  x=210   y=150   width=2     height=1     xoffset=0     yoffset=29    xadvance=8     page=0  chnl=15
char id=150  x=253   y=173   width=1     height=2     xoffset=0     yoffset=16    xadvance=8     page=0  chnl=15
char id=151  x=254   y=36    width=1     height=2     xoffset=0     yoffset=16    xadvance=8     page=0  chnl=15
char id=152  x=207   y=150   width=2     height=1     xoffset=0     yoffset=29    xadvance=8     page=0  chnl=15
char id=153  x=253   y=167   width=2     height=5     xoffset=0     yoffset=5     xadvance=8     page=0  chnl=15
char id=154  x=189   y=110   width=2     height=1     xoffset=0     yoffset=29    xadvance=8     page=0  chnl=15
char id=155  x=186   y=110   width=2     height=1     xoffset=0     yoffset=29    xadvance=8     page=0  chnl=15
char id=156  x=181   y=90    width=2     height=1     xoffset=0     yoffset=29    xadvance=8     page=0  chnl=15
char id=158  x=192   y=110   width=2     height=1     xoffset=0     yoffset=29    xadvance=8     page=0  chnl=15
char id=159  x=160   y=199   width=2     height=2     xoffset=0     yoffset=5     xadvance=8     page=0  chnl=15
char id=160  x=175   y=90    width=2     height=1     xoffset=0     yoffset=29    xadvance=8     page=0  chnl=15
char id=161  x=251   y=109   width=3     height=19    xoffset=2     yoffset=8     xadvance=7     page=0  chnl=15
char id=162  x=49    y=93    width=11    height=20    xoffset=1     yoffset=5     xadvance=13    page=0  chnl=15
char id=163  x=121   y=132   width=14    height=19    xoffset=0     yoffset=5     xadvance=13    page=0  chnl=15
char id=164  x=229   y=184   width=10    height=11    xoffset=2     yoffset=12    xadvance=13    page=0  chnl=15
char id=165  x=18    y=135   width=17    height=19    xoffset=-1    yoffset=5     xadvance=13    page=0  chnl=15
char id=166  x=252   y=0     width=2     height=21    xoffset=5     yoffset=7     xadvance=12    page=0  chnl=15
char id=167  x=93    y=0     width=11    height=24    xoffset=2     yoffset=5     xadvance=14    page=0  chnl=15
char id=168  x=123   y=201   width=7     height=3     xoffset=7     yoffset=2     xadvance=22    page=0  chnl=15
char id=169  x=80    y=113   width=19    height=19    xoffset=1     yoffset=5     xadvance=21    page=0  chnl=15
char id=170  x=0     y=209   width=10    height=10    xoffset=0     yoffset=5     xadvance=9     page=0  chnl=15
char id=171  x=218   y=186   width=10    height=11    xoffset=1     yoffset=11    xadvance=13    page=0  chnl=15
char id=172  x=42    y=209   width=11    height=6     xoffset=0     yoffset=15    xadvance=12    page=0  chnl=15
char id=173  x=105   y=207   width=8     height=3     xoffset=1     yoffset=16    xadvance=9     page=0  chnl=15
char id=174  x=70    y=209   width=5     height=5     xoffset=0     yoffset=5     xadvance=5     page=0  chnl=15
char id=175  x=152   y=200   width=7     height=2     xoffset=7     yoffset=2     xadvance=22    page=0  chnl=15
char id=176  x=76    y=209   width=5     height=5     xoffset=1     yoffset=7     xadvance=7     page=0  chnl=15
char id=177  x=110   y=190   width=11    height=13    xoffset=0     yoffset=11    xadvance=12    page=0  chnl=15
char id=178  x=122   y=188   width=8     height=12    xoffset=1     yoffset=5     xadvance=10    page=0  chnl=15
char id=179  x=131   y=188   width=7     height=12    xoffset=1     yoffset=5     xadvance=10    page=0  chnl=15
char id=180  x=99    y=207   width=5     height=4     xoffset=9     yoffset=1     xadvance=22    page=0  chnl=15
char id=181  x=112   y=152   width=13    height=18    xoffset=1     yoffset=12    xadvance=14    page=0  chnl=15
char id=182  x=66    y=0     width=14    height=24    xoffset=1     yoffset=5     xadvance=17    page=0  chnl=15
char id=183  x=135   y=201   width=3     height=3     xoffset=2     yoffset=16    xadvance=6     page=0  chnl=15
char id=184  x=37    y=209   width=4     height=7     xoffset=9     yoffset=23    xadvance=22    page=0  chnl=15
char id=185  x=139   y=188   width=7     height=12    xoffset=0     yoffset=5     xadvance=8     page=0  chnl=15
char id=186  x=11    y=209   width=10    height=10    xoffset=0     yoffset=5     xadvance=10    page=0  chnl=15
char id=187  x=240   y=184   width=10    height=11    xoffset=1     yoffset=11    xadvance=13    page=0  chnl=15
char id=188  x=158   y=112   width=18    height=19    xoffset=0     yoffset=6     xadvance=19    page=0  chnl=15
char id=189  x=20    y=115   width=19    height=19    xoffset=0     yoffset=6     xadvance=20    page=0  chnl=15
char id=190  x=177   y=112   width=18    height=19    xoffset=1     yoffset=6     xadvance=19    page=0  chnl=15
char id=191  x=90    y=153   width=9     height=19    xoffset=1     yoffset=8     xadvance=11    page=0  chnl=15
char id=192  x=180   y=0     width=19    height=23    xoffset=-1    yoffset=1     xadvance=17    page=0  chnl=15
char id=193  x=0     y=26    width=19    height=23    xoffset=-1    yoffset=1     xadvance=17    page=0  chnl=15
char id=194  x=220   y=0     width=19    height=23    xoffset=-1    yoffset=1     xadvance=17    page=0  chnl=15
char id=195  x=225   y=24    width=19    height=22    xoffset=-1    yoffset=2     xadvance=17    page=0  chnl=15
char id=196  x=0     y=50    width=19    height=22    xoffset=-1    yoffset=2     xadvance=17    page=0  chnl=15
char id=197  x=160   y=0     width=19    height=23    xoffset=-1    yoffset=1     xadvance=17    page=0  chnl=15
char id=198  x=210   y=47    width=23    height=20    xoffset=-2    yoffset=5     xadvance=22    page=0  chnl=15
char id=199  x=0     y=0     width=17    height=25    xoffset=1     yoffset=5     xadvance=19    page=0  chnl=15
char id=200  x=117   y=0     width=11    height=24    xoffset=2     yoffset=1     xadvance=14    page=0  chnl=15
char id=201  x=81    y=0     width=11    height=24    xoffset=2     yoffset=1     xadvance=14    page=0  chnl=15
char id=202  x=105   y=0     width=11    height=24    xoffset=2     yoffset=1     xadvance=14    page=0  chnl=15
char id=203  x=240   y=0     width=11    height=23    xoffset=2     yoffset=2     xadvance=14    page=0  chnl=15
char id=204  x=119   y=25    width=8     height=23    xoffset=1     yoffset=1     xadvance=10    page=0  chnl=15
char id=205  x=128   y=25    width=7     height=23    xoffset=2     yoffset=1     xadvance=10    page=0  chnl=15
char id=206  x=136   y=25    width=7     height=23    xoffset=2     yoffset=1     xadvance=10    page=0  chnl=15
char id=207  x=245   y=24    width=7     height=22    xoffset=2     yoffset=2     xadvance=10    page=0  chnl=15
char id=208  x=234   y=47    width=19    height=20    xoffset=2     yoffset=5     xadvance=22    page=0  chnl=15
char id=209  x=144   y=24    width=20    height=22    xoffset=1     yoffset=2     xadvance=22    page=0  chnl=15
char id=210  x=200   y=0     width=19    height=23    xoffset=1     yoffset=1     xadvance=22    page=0  chnl=15
char id=211  x=20    y=26    width=19    height=23    xoffset=1     yoffset=1     xadvance=22    page=0  chnl=15
char id=212  x=140   y=0     width=19    height=23    xoffset=1     yoffset=1     xadvance=22    page=0  chnl=15
char id=213  x=165   y=24    width=19    height=22    xoffset=1     yoffset=2     xadvance=22    page=0  chnl=15
char id=214  x=185   y=24    width=19    height=22    xoffset=1     yoffset=2     xadvance=22    page=0  chnl=15
char id=215  x=207   y=186   width=10    height=11    xoffset=1     yoffset=12    xadvance=12    page=0  chnl=15
char id=216  x=0     y=73    width=19    height=20    xoffset=1     yoffset=5     xadvance=22    page=0  chnl=15
char id=217  x=80    y=25    width=19    height=23    xoffset=0     yoffset=1     xadvance=20    page=0  chnl=15
char id=218  x=60    y=25    width=19    height=23    xoffset=0     yoffset=1     xadvance=20    page=0  chnl=15
char id=219  x=40    y=25    width=19    height=23    xoffset=0     yoffset=1     xadvance=20    page=0  chnl=15
char id=220  x=205   y=24    width=19    height=22    xoffset=0     yoffset=2     xadvance=20    page=0  chnl=15
char id=221  x=100   y=25    width=18    height=23    xoffset=-1    yoffset=1     xadvance=15    page=0  chnl=15
char id=222  x=0     y=155   width=12    height=19    xoffset=2     yoffset=5     xadvance=15    page=0  chnl=15
char id=223  x=218   y=150   width=22    height=16    xoffset=1     yoffset=8     xadvance=25    page=0  chnl=15
char id=224  x=40    y=72    width=17    height=20    xoffset=0     yoffset=4     xadvance=15    page=0  chnl=15
char id=225  x=184   y=69    width=17    height=20    xoffset=0     yoffset=4     xadvance=15    page=0  chnl=15
char id=226  x=68    y=49    width=17    height=21    xoffset=0     yoffset=3     xadvance=15    page=0  chnl=15
char id=227  x=58    y=72    width=17    height=20    xoffset=0     yoffset=4     xadvance=15    page=0  chnl=15
char id=228  x=233   y=109   width=17    height=19    xoffset=-1    yoffset=5     xadvance=15    page=0  chnl=15
char id=229  x=86    y=49    width=17    height=21    xoffset=-1    yoffset=3     xadvance=15    page=0  chnl=15
char id=230  x=23    y=175   width=20    height=16    xoffset=-1    yoffset=8     xadvance=19    page=0  chnl=15
char id=231  x=20    y=50    width=15    height=22    xoffset=1     yoffset=8     xadvance=17    page=0  chnl=15
char id=232  x=13    y=94    width=11    height=20    xoffset=1     yoffset=4     xadvance=13    page=0  chnl=15
char id=233  x=25    y=94    width=11    height=20    xoffset=1     yoffset=4     xadvance=13    page=0  chnl=15
char id=234  x=140   y=49    width=11    height=21    xoffset=1     yoffset=3     xadvance=13    page=0  chnl=15
char id=235  x=37    y=155   width=11    height=19    xoffset=1     yoffset=5     xadvance=13    page=0  chnl=15
char id=236  x=246   y=68    width=7     height=20    xoffset=0     yoffset=4     xadvance=9     page=0  chnl=15
char id=237  x=61    y=93    width=7     height=20    xoffset=2     yoffset=4     xadvance=9     page=0  chnl=15
char id=238  x=168   y=47    width=7     height=21    xoffset=1     yoffset=3     xadvance=9     page=0  chnl=15
char id=239  x=247   y=89    width=7     height=19    xoffset=1     yoffset=5     xadvance=9     page=0  chnl=15
char id=240  x=139   y=152   width=17    height=17    xoffset=1     yoffset=8     xadvance=19    page=0  chnl=15
char id=241  x=166   y=69    width=17    height=20    xoffset=1     yoffset=4     xadvance=20    page=0  chnl=15
char id=242  x=148   y=71    width=17    height=20    xoffset=1     yoffset=4     xadvance=19    page=0  chnl=15
char id=243  x=130   y=71    width=17    height=20    xoffset=1     yoffset=4     xadvance=19    page=0  chnl=15
char id=244  x=104   y=49    width=17    height=21    xoffset=1     yoffset=3     xadvance=19    page=0  chnl=15
char id=245  x=112   y=71    width=17    height=20    xoffset=1     yoffset=4     xadvance=19    page=0  chnl=15
char id=246  x=54    y=135   width=17    height=19    xoffset=1     yoffset=5     xadvance=19    page=0  chnl=15
char id=247  x=183   y=187   width=11    height=11    xoffset=1     yoffset=12    xadvance=12    page=0  chnl=15
char id=248  x=175   y=152   width=17    height=17    xoffset=1     yoffset=8     xadvance=19    page=0  chnl=15
char id=249  x=94    y=71    width=17    height=20    xoffset=0     yoffset=4     xadvance=17    page=0  chnl=15
char id=250  x=76    y=71    width=17    height=20    xoffset=0     yoffset=4     xadvance=17    page=0  chnl=15
char id=251  x=122   y=49    width=17    height=21    xoffset=0     yoffset=3     xadvance=17    page=0  chnl=15
char id=252  x=36    y=135   width=17    height=19    xoffset=0     yoffset=5     xadvance=17    page=0  chnl=15
char id=253  x=202   y=69    width=16    height=20    xoffset=-1    yoffset=4     xadvance=14    page=0  chnl=15
char id=254  x=40    y=192   width=12    height=16    xoffset=1     yoffset=8     xadvance=14    page=0  chnl=15
char id=255  x=72    y=134   width=16    height=19    xoffset=-1    yoffset=5     xadvance=14    page=0  chnl=15
kernings count=739
kerning first=148 second=148 amount=-1  
kerning first=148 second=146 amount=-1  
kerning first=40  second=121 amount=1   
kerning first=40  second=253 amount=1   
kerning first=40  second=255 amount=1   
kerning first=148 second=154 amount=-1  
kerning first=148 second=118 amount=1   
kerning first=65  second=84  amount=-1  
kerning first=65  second=86  amount=-2  
kerning first=65  second=87  amount=-1  
kerning first=148 second=115 amount=-1  
kerning first=65  second=89  amount=-1  
kerning first=148 second=109 amount=-1  
kerning first=147 second=147 amount=-1  
kerning first=65  second=116 amount=-1  
kerning first=65  second=118 amount=-2  
kerning first=65  second=119 amount=-1  
kerning first=147 second=145 amount=-1  
kerning first=65  second=121 amount=-1  
kerning first=65  second=221 amount=-1  
kerning first=65  second=253 amount=-1  
kerning first=65  second=255 amount=-1  
kerning first=147 second=255 amount=1   
kerning first=147 second=253 amount=1   
kerning first=65  second=159 amount=-1  
kerning first=65  second=146 amount=-2  
kerning first=65  second=148 amount=-2  
kerning first=147 second=230 amount=-2  
kerning first=147 second=229 amount=-2  
kerning first=147 second=228 amount=-2  
kerning first=147 second=227 amount=-2  
kerning first=147 second=226 amount=-2  
kerning first=147 second=225 amount=-2  
kerning first=147 second=224 amount=-2  
kerning first=147 second=121 amount=1   
kerning first=147 second=119 amount=1   
kerning first=147 second=118 amount=1   
kerning first=147 second=97  amount=-2  
kerning first=146 second=148 amount=-1  
kerning first=66  second=86  amount=-1  
kerning first=146 second=146 amount=-1  
kerning first=146 second=154 amount=-1  
kerning first=146 second=118 amount=1   
kerning first=146 second=115 amount=-1  
kerning first=146 second=109 amount=-1  
kerning first=145 second=147 amount=-1  
kerning first=145 second=145 amount=-1  
kerning first=145 second=255 amount=1   
kerning first=145 second=253 amount=1   
kerning first=145 second=230 amount=-2  
kerning first=145 second=229 amount=-2  
kerning first=145 second=228 amount=-2  
kerning first=145 second=227 amount=-2  
kerning first=145 second=226 amount=-2  
kerning first=66  second=118 amount=-1  
kerning first=145 second=225 amount=-2  
kerning first=66  second=121 amount=-1  
kerning first=145 second=224 amount=-2  
kerning first=145 second=121 amount=1   
kerning first=145 second=119 amount=1   
kerning first=145 second=118 amount=1   
kerning first=145 second=97  amount=-2  
kerning first=142 second=156 amount=-1  
kerning first=142 second=248 amount=-1  
kerning first=142 second=246 amount=-1  
kerning first=142 second=245 amount=-1  
kerning first=142 second=244 amount=-1  
kerning first=142 second=243 amount=-1  
kerning first=142 second=242 amount=-1  
kerning first=142 second=231 amount=-1  
kerning first=142 second=113 amount=-1  
kerning first=142 second=111 amount=-1  
kerning first=142 second=103 amount=-1  
kerning first=142 second=99  amount=-1  
kerning first=159 second=133 amount=-2  
kerning first=159 second=148 amount=1   
kerning first=159 second=146 amount=1   
kerning first=159 second=156 amount=-1  
kerning first=159 second=248 amount=-1  
kerning first=159 second=246 amount=-1  
kerning first=159 second=245 amount=-1  
kerning first=159 second=244 amount=-1  
kerning first=159 second=243 amount=-1  
kerning first=159 second=242 amount=-1  
kerning first=159 second=231 amount=-1  
kerning first=159 second=230 amount=-1  
kerning first=159 second=229 amount=-1  
kerning first=159 second=228 amount=-1  
kerning first=159 second=227 amount=-1  
kerning first=159 second=226 amount=-1  
kerning first=159 second=225 amount=-1  
kerning first=159 second=224 amount=-1  
kerning first=159 second=198 amount=-1  
kerning first=66  second=253 amount=-1  
kerning first=159 second=197 amount=-1  
kerning first=66  second=255 amount=-1  
kerning first=159 second=196 amount=-1  
kerning first=159 second=195 amount=-1  
kerning first=159 second=194 amount=-1  
kerning first=159 second=193 amount=-1  
kerning first=159 second=192 amount=-1  
kerning first=159 second=125 amount=1   
kerning first=159 second=113 amount=-1  
kerning first=159 second=111 amount=-1  
kerning first=159 second=103 amount=-1  
kerning first=159 second=99  amount=-1  
kerning first=159 second=97  amount=-1  
kerning first=159 second=93  amount=1   
kerning first=159 second=65  amount=-1  
kerning first=159 second=46  amount=-2  
kerning first=159 second=44  amount=-2  
kerning first=159 second=41  amount=1   
kerning first=156 second=120 amount=1   
kerning first=140 second=120 amount=1   
kerning first=140 second=119 amount=1   
kerning first=140 second=88  amount=1   
kerning first=108 second=148 amount=-1  
kerning first=108 second=146 amount=-1  
kerning first=108 second=255 amount=-1  
kerning first=108 second=253 amount=-1  
kerning first=108 second=121 amount=-1  
kerning first=108 second=118 amount=-1  
kerning first=108 second=116 amount=-1  
kerning first=76  second=148 amount=-1  
kerning first=76  second=146 amount=-1  
kerning first=76  second=159 amount=-1  
kerning first=76  second=255 amount=-1  
kerning first=76  second=253 amount=-1  
kerning first=76  second=221 amount=-1  
kerning first=76  second=121 amount=-1  
kerning first=76  second=118 amount=-1  
kerning first=76  second=116 amount=-1  
kerning first=76  second=89  amount=-1  
kerning first=76  second=86  amount=-1  
kerning first=76  second=84  amount=-1  
kerning first=255 second=133 amount=-2  
kerning first=255 second=148 amount=1   
kerning first=255 second=146 amount=1   
kerning first=255 second=230 amount=-1  
kerning first=255 second=229 amount=-1  
kerning first=255 second=228 amount=-1  
kerning first=255 second=227 amount=-1  
kerning first=255 second=226 amount=-1  
kerning first=255 second=225 amount=-1  
kerning first=255 second=224 amount=-1  
kerning first=255 second=125 amount=1   
kerning first=255 second=97  amount=-1  
kerning first=255 second=93  amount=1   
kerning first=255 second=46  amount=-2  
kerning first=255 second=44  amount=-2  
kerning first=255 second=41  amount=1   
kerning first=253 second=133 amount=-2  
kerning first=253 second=148 amount=1   
kerning first=253 second=146 amount=1   
kerning first=253 second=230 amount=-1  
kerning first=253 second=229 amount=-1  
kerning first=253 second=228 amount=-1  
kerning first=253 second=227 amount=-1  
kerning first=253 second=226 amount=-1  
kerning first=253 second=225 amount=-1  
kerning first=253 second=224 amount=-1  
kerning first=253 second=125 amount=1   
kerning first=253 second=97  amount=-1  
kerning first=253 second=93  amount=1   
kerning first=253 second=46  amount=-2  
kerning first=253 second=44  amount=-2  
kerning first=253 second=41  amount=1   
kerning first=235 second=120 amount=1   
kerning first=234 second=120 amount=1   
kerning first=233 second=120 amount=1   
kerning first=232 second=120 amount=1   
kerning first=230 second=120 amount=1   
kerning first=229 second=148 amount=-2  
kerning first=229 second=146 amount=-2  
kerning first=229 second=255 amount=-1  
kerning first=229 second=253 amount=-1  
kerning first=229 second=121 amount=-1  
kerning first=229 second=119 amount=-1  
kerning first=229 second=118 amount=-2  
kerning first=229 second=116 amount=-1  
kerning first=228 second=148 amount=-2  
kerning first=228 second=146 amount=-2  
kerning first=228 second=255 amount=-1  
kerning first=228 second=253 amount=-1  
kerning first=228 second=121 amount=-1  
kerning first=228 second=119 amount=-1  
kerning first=228 second=118 amount=-2  
kerning first=228 second=116 amount=-1  
kerning first=227 second=148 amount=-2  
kerning first=227 second=146 amount=-2  
kerning first=227 second=255 amount=-1  
kerning first=227 second=253 amount=-1  
kerning first=227 second=121 amount=-1  
kerning first=227 second=119 amount=-1  
kerning first=227 second=118 amount=-2  
kerning first=227 second=116 amount=-1  
kerning first=226 second=148 amount=-2  
kerning first=226 second=146 amount=-2  
kerning first=226 second=255 amount=-1  
kerning first=69  second=88  amount=1   
kerning first=226 second=253 amount=-1  
kerning first=226 second=121 amount=-1  
kerning first=69  second=119 amount=1   
kerning first=69  second=120 amount=1   
kerning first=226 second=119 amount=-1  
kerning first=226 second=118 amount=-2  
kerning first=226 second=116 amount=-1  
kerning first=225 second=148 amount=-2  
kerning first=225 second=146 amount=-2  
kerning first=70  second=44  amount=-2  
kerning first=70  second=46  amount=-2  
kerning first=225 second=255 amount=-1  
kerning first=225 second=253 amount=-1  
kerning first=70  second=97  amount=-1  
kerning first=225 second=121 amount=-1  
kerning first=225 second=119 amount=-1  
kerning first=225 second=118 amount=-2  
kerning first=225 second=116 amount=-1  
kerning first=224 second=148 amount=-2  
kerning first=224 second=146 amount=-2  
kerning first=224 second=255 amount=-1  
kerning first=224 second=253 amount=-1  
kerning first=224 second=121 amount=-1  
kerning first=70  second=224 amount=-1  
kerning first=70  second=225 amount=-1  
kerning first=70  second=226 amount=-1  
kerning first=70  second=227 amount=-1  
kerning first=70  second=228 amount=-1  
kerning first=70  second=229 amount=-1  
kerning first=70  second=230 amount=-1  
kerning first=224 second=119 amount=-1  
kerning first=224 second=118 amount=-2  
kerning first=224 second=116 amount=-1  
kerning first=70  second=133 amount=-2  
kerning first=221 second=133 amount=-2  
kerning first=221 second=148 amount=1   
kerning first=221 second=146 amount=1   
kerning first=221 second=156 amount=-1  
kerning first=221 second=248 amount=-1  
kerning first=221 second=246 amount=-1  
kerning first=221 second=245 amount=-1  
kerning first=221 second=244 amount=-1  
kerning first=221 second=243 amount=-1  
kerning first=221 second=242 amount=-1  
kerning first=221 second=231 amount=-1  
kerning first=221 second=230 amount=-1  
kerning first=221 second=229 amount=-1  
kerning first=221 second=228 amount=-1  
kerning first=221 second=227 amount=-1  
kerning first=221 second=226 amount=-1  
kerning first=221 second=225 amount=-1  
kerning first=221 second=224 amount=-1  
kerning first=221 second=198 amount=-1  
kerning first=221 second=197 amount=-1  
kerning first=221 second=196 amount=-1  
kerning first=221 second=195 amount=-1  
kerning first=221 second=194 amount=-1  
kerning first=221 second=193 amount=-1  
kerning first=221 second=192 amount=-1  
kerning first=221 second=125 amount=1   
kerning first=221 second=113 amount=-1  
kerning first=221 second=111 amount=-1  
kerning first=221 second=103 amount=-1  
kerning first=221 second=99  amount=-1  
kerning first=221 second=97  amount=-1  
kerning first=221 second=93  amount=1   
kerning first=221 second=65  amount=-1  
kerning first=221 second=46  amount=-2  
kerning first=221 second=44  amount=-2  
kerning first=221 second=41  amount=1   
kerning first=216 second=108 amount=-1  
kerning first=216 second=105 amount=-1  
kerning first=216 second=254 amount=-1  
kerning first=216 second=241 amount=-1  
kerning first=216 second=240 amount=-1  
kerning first=216 second=239 amount=-1  
kerning first=216 second=238 amount=-1  
kerning first=216 second=237 amount=-1  
kerning first=216 second=236 amount=-1  
kerning first=216 second=235 amount=-1  
kerning first=216 second=234 amount=-1  
kerning first=216 second=233 amount=-1  
kerning first=216 second=232 amount=-1  
kerning first=216 second=114 amount=-1  
kerning first=216 second=112 amount=-1  
kerning first=216 second=110 amount=-1  
kerning first=86  second=65  amount=-2  
kerning first=216 second=107 amount=-1  
kerning first=86  second=97  amount=-2  
kerning first=216 second=104 amount=-1  
kerning first=216 second=102 amount=-1  
kerning first=216 second=101 amount=-1  
kerning first=216 second=100 amount=-1  
kerning first=216 second=98  amount=-1  
kerning first=214 second=108 amount=-1  
kerning first=214 second=105 amount=-1  
kerning first=214 second=254 amount=-1  
kerning first=214 second=241 amount=-1  
kerning first=214 second=240 amount=-1  
kerning first=214 second=239 amount=-1  
kerning first=214 second=238 amount=-1  
kerning first=214 second=237 amount=-1  
kerning first=214 second=236 amount=-1  
kerning first=214 second=235 amount=-1  
kerning first=214 second=234 amount=-1  
kerning first=214 second=233 amount=-1  
kerning first=214 second=232 amount=-1  
kerning first=214 second=114 amount=-1  
kerning first=214 second=112 amount=-1  
kerning first=214 second=110 amount=-1  
kerning first=86  second=192 amount=-2  
kerning first=214 second=107 amount=-1  
kerning first=86  second=193 amount=-2  
kerning first=214 second=104 amount=-1  
kerning first=214 second=102 amount=-1  
kerning first=214 second=101 amount=-1  
kerning first=214 second=100 amount=-1  
kerning first=214 second=98  amount=-1  
kerning first=213 second=108 amount=-1  
kerning first=213 second=105 amount=-1  
kerning first=213 second=254 amount=-1  
kerning first=213 second=241 amount=-1  
kerning first=213 second=240 amount=-1  
kerning first=213 second=239 amount=-1  
kerning first=213 second=238 amount=-1  
kerning first=213 second=237 amount=-1  
kerning first=213 second=236 amount=-1  
kerning first=213 second=235 amount=-1  
kerning first=213 second=234 amount=-1  
kerning first=213 second=233 amount=-1  
kerning first=213 second=232 amount=-1  
kerning first=213 second=114 amount=-1  
kerning first=213 second=112 amount=-1  
kerning first=213 second=110 amount=-1  
kerning first=86  second=194 amount=-2  
kerning first=213 second=107 amount=-1  
kerning first=86  second=195 amount=-2  
kerning first=213 second=104 amount=-1  
kerning first=213 second=102 amount=-1  
kerning first=213 second=101 amount=-1  
kerning first=213 second=100 amount=-1  
kerning first=213 second=98  amount=-1  
kerning first=212 second=108 amount=-1  
kerning first=212 second=105 amount=-1  
kerning first=212 second=254 amount=-1  
kerning first=212 second=241 amount=-1  
kerning first=212 second=240 amount=-1  
kerning first=86  second=46  amount=-3  
kerning first=212 second=239 amount=-1  
kerning first=86  second=44  amount=-3  
kerning first=212 second=238 amount=-1  
kerning first=84  second=133 amount=-3  
kerning first=212 second=237 amount=-1  
kerning first=212 second=236 amount=-1  
kerning first=212 second=235 amount=-1  
kerning first=212 second=234 amount=-1  
kerning first=212 second=233 amount=-1  
kerning first=212 second=232 amount=-1  
kerning first=84  second=154 amount=-1  
kerning first=212 second=114 amount=-1  
kerning first=84  second=230 amount=-1  
kerning first=212 second=112 amount=-1  
kerning first=84  second=229 amount=-1  
kerning first=212 second=110 amount=-1  
kerning first=86  second=196 amount=-2  
kerning first=212 second=107 amount=-1  
kerning first=86  second=197 amount=-2  
kerning first=212 second=104 amount=-1  
kerning first=212 second=102 amount=-1  
kerning first=212 second=101 amount=-1  
kerning first=212 second=100 amount=-1  
kerning first=212 second=98  amount=-1  
kerning first=211 second=108 amount=-1  
kerning first=211 second=105 amount=-1  
kerning first=211 second=254 amount=-1  
kerning first=211 second=241 amount=-1  
kerning first=211 second=240 amount=-1  
kerning first=211 second=239 amount=-1  
kerning first=211 second=238 amount=-1  
kerning first=211 second=237 amount=-1  
kerning first=211 second=236 amount=-1  
kerning first=84  second=115 amount=-1  
kerning first=211 second=235 amount=-1  
kerning first=211 second=234 amount=-1  
kerning first=211 second=233 amount=-1  
kerning first=211 second=232 amount=-1  
kerning first=211 second=114 amount=-1  
kerning first=211 second=112 amount=-1  
kerning first=211 second=110 amount=-1  
kerning first=86  second=198 amount=-2  
kerning first=211 second=107 amount=-1  
kerning first=86  second=224 amount=-2  
kerning first=211 second=104 amount=-1  
kerning first=211 second=102 amount=-1  
kerning first=211 second=101 amount=-1  
kerning first=211 second=100 amount=-1  
kerning first=211 second=98  amount=-1  
kerning first=210 second=108 amount=-1  
kerning first=210 second=105 amount=-1  
kerning first=210 second=254 amount=-1  
kerning first=84  second=228 amount=-1  
kerning first=84  second=227 amount=-1  
kerning first=210 second=241 amount=-1  
kerning first=84  second=226 amount=-1  
kerning first=84  second=225 amount=-1  
kerning first=84  second=192 amount=-1  
kerning first=210 second=240 amount=-1  
kerning first=210 second=239 amount=-1  
kerning first=210 second=238 amount=-1  
kerning first=210 second=237 amount=-1  
kerning first=210 second=236 amount=-1  
kerning first=210 second=235 amount=-1  
kerning first=210 second=234 amount=-1  
kerning first=210 second=233 amount=-1  
kerning first=210 second=232 amount=-1  
kerning first=210 second=114 amount=-1  
kerning first=210 second=112 amount=-1  
kerning first=210 second=110 amount=-1  
kerning first=84  second=97  amount=-1  
kerning first=210 second=107 amount=-1  
kerning first=86  second=225 amount=-2  
kerning first=210 second=104 amount=-1  
kerning first=210 second=102 amount=-1  
kerning first=210 second=101 amount=-1  
kerning first=210 second=100 amount=-1  
kerning first=210 second=98  amount=-1  
kerning first=203 second=120 amount=1   
kerning first=203 second=119 amount=1   
kerning first=203 second=88  amount=1   
kerning first=202 second=120 amount=1   
kerning first=202 second=119 amount=1   
kerning first=202 second=88  amount=1   
kerning first=201 second=120 amount=1   
kerning first=201 second=119 amount=1   
kerning first=201 second=88  amount=1   
kerning first=200 second=120 amount=1   
kerning first=200 second=119 amount=1   
kerning first=200 second=88  amount=1   
kerning first=198 second=120 amount=1   
kerning first=198 second=119 amount=1   
kerning first=198 second=88  amount=1   
kerning first=197 second=148 amount=-2  
kerning first=197 second=146 amount=-2  
kerning first=197 second=159 amount=-1  
kerning first=197 second=255 amount=-1  
kerning first=197 second=253 amount=-1  
kerning first=197 second=221 amount=-1  
kerning first=197 second=121 amount=-1  
kerning first=197 second=119 amount=-1  
kerning first=197 second=118 amount=-2  
kerning first=197 second=116 amount=-1  
kerning first=197 second=89  amount=-1  
kerning first=197 second=87  amount=-1  
kerning first=197 second=86  amount=-2  
kerning first=197 second=84  amount=-1  
kerning first=196 second=148 amount=-2  
kerning first=196 second=146 amount=-2  
kerning first=196 second=159 amount=-1  
kerning first=196 second=255 amount=-1  
kerning first=196 second=253 amount=-1  
kerning first=196 second=221 amount=-1  
kerning first=196 second=121 amount=-1  
kerning first=196 second=119 amount=-1  
kerning first=196 second=118 amount=-2  
kerning first=196 second=116 amount=-1  
kerning first=196 second=89  amount=-1  
kerning first=196 second=87  amount=-1  
kerning first=196 second=86  amount=-2  
kerning first=196 second=84  amount=-1  
kerning first=195 second=148 amount=-2  
kerning first=195 second=146 amount=-2  
kerning first=195 second=159 amount=-1  
kerning first=195 second=255 amount=-1  
kerning first=195 second=253 amount=-1  
kerning first=195 second=221 amount=-1  
kerning first=195 second=121 amount=-1  
kerning first=195 second=119 amount=-1  
kerning first=195 second=118 amount=-2  
kerning first=195 second=116 amount=-1  
kerning first=195 second=89  amount=-1  
kerning first=195 second=87  amount=-1  
kerning first=195 second=86  amount=-2  
kerning first=195 second=84  amount=-1  
kerning first=194 second=148 amount=-2  
kerning first=194 second=146 amount=-2  
kerning first=79  second=98  amount=-1  
kerning first=79  second=100 amount=-1  
kerning first=79  second=101 amount=-1  
kerning first=79  second=102 amount=-1  
kerning first=79  second=104 amount=-1  
kerning first=79  second=105 amount=-1  
kerning first=194 second=159 amount=-1  
kerning first=79  second=107 amount=-1  
kerning first=79  second=108 amount=-1  
kerning first=194 second=255 amount=-1  
kerning first=79  second=110 amount=-1  
kerning first=79  second=112 amount=-1  
kerning first=79  second=114 amount=-1  
kerning first=194 second=253 amount=-1  
kerning first=194 second=221 amount=-1  
kerning first=194 second=121 amount=-1  
kerning first=194 second=119 amount=-1  
kerning first=194 second=118 amount=-2  
kerning first=194 second=116 amount=-1  
kerning first=194 second=89  amount=-1  
kerning first=194 second=87  amount=-1  
kerning first=194 second=86  amount=-2  
kerning first=194 second=84  amount=-1  
kerning first=193 second=148 amount=-2  
kerning first=193 second=146 amount=-2  
kerning first=193 second=159 amount=-1  
kerning first=193 second=255 amount=-1  
kerning first=193 second=253 amount=-1  
kerning first=193 second=221 amount=-1  
kerning first=193 second=121 amount=-1  
kerning first=193 second=119 amount=-1  
kerning first=193 second=118 amount=-2  
kerning first=193 second=116 amount=-1  
kerning first=193 second=89  amount=-1  
kerning first=193 second=87  amount=-1  
kerning first=193 second=86  amount=-2  
kerning first=193 second=84  amount=-1  
kerning first=192 second=148 amount=-2  
kerning first=192 second=146 amount=-2  
kerning first=192 second=159 amount=-1  
kerning first=192 second=255 amount=-1  
kerning first=192 second=253 amount=-1  
kerning first=192 second=221 amount=-1  
kerning first=192 second=121 amount=-1  
kerning first=79  second=232 amount=-1  
kerning first=79  second=233 amount=-1  
kerning first=79  second=234 amount=-1  
kerning first=79  second=235 amount=-1  
kerning first=79  second=236 amount=-1  
kerning first=79  second=237 amount=-1  
kerning first=79  second=238 amount=-1  
kerning first=79  second=239 amount=-1  
kerning first=79  second=240 amount=-1  
kerning first=79  second=241 amount=-1  
kerning first=192 second=119 amount=-1  
kerning first=79  second=254 amount=-1  
kerning first=192 second=118 amount=-2  
kerning first=86  second=226 amount=-2  
kerning first=192 second=116 amount=-1  
kerning first=86  second=227 amount=-2  
kerning first=192 second=89  amount=-1  
kerning first=80  second=44  amount=-4  
kerning first=80  second=46  amount=-4  
kerning first=80  second=65  amount=-1  
kerning first=192 second=87  amount=-1  
kerning first=192 second=86  amount=-2  
kerning first=192 second=84  amount=-1  
kerning first=123 second=255 amount=1   
kerning first=123 second=253 amount=1   
kerning first=123 second=121 amount=1   
kerning first=121 second=133 amount=-2  
kerning first=121 second=148 amount=1   
kerning first=121 second=146 amount=1   
kerning first=121 second=230 amount=-1  
kerning first=121 second=229 amount=-1  
kerning first=121 second=228 amount=-1  
kerning first=80  second=97  amount=-1  
kerning first=121 second=227 amount=-1  
kerning first=121 second=226 amount=-1  
kerning first=121 second=225 amount=-1  
kerning first=121 second=224 amount=-1  
kerning first=121 second=125 amount=1   
kerning first=121 second=97  amount=-1  
kerning first=121 second=93  amount=1   
kerning first=121 second=46  amount=-2  
kerning first=121 second=44  amount=-2  
kerning first=121 second=41  amount=1   
kerning first=119 second=133 amount=-2  
kerning first=119 second=148 amount=1   
kerning first=80  second=192 amount=-1  
kerning first=80  second=193 amount=-1  
kerning first=80  second=194 amount=-1  
kerning first=80  second=195 amount=-1  
kerning first=80  second=196 amount=-1  
kerning first=80  second=197 amount=-1  
kerning first=80  second=198 amount=-1  
kerning first=119 second=146 amount=1   
kerning first=119 second=230 amount=-1  
kerning first=119 second=229 amount=-1  
kerning first=119 second=228 amount=-1  
kerning first=119 second=227 amount=-1  
kerning first=119 second=226 amount=-1  
kerning first=119 second=225 amount=-1  
kerning first=119 second=224 amount=-1  
kerning first=119 second=97  amount=-1  
kerning first=119 second=46  amount=-2  
kerning first=119 second=44  amount=-2  
kerning first=80  second=224 amount=-1  
kerning first=80  second=225 amount=-1  
kerning first=80  second=226 amount=-1  
kerning first=80  second=227 amount=-1  
kerning first=80  second=228 amount=-1  
kerning first=80  second=229 amount=-1  
kerning first=80  second=230 amount=-1  
kerning first=118 second=133 amount=-3  
kerning first=118 second=148 amount=1   
kerning first=118 second=146 amount=1   
kerning first=118 second=230 amount=-1  
kerning first=118 second=229 amount=-1  
kerning first=118 second=228 amount=-1  
kerning first=118 second=227 amount=-1  
kerning first=118 second=226 amount=-1  
kerning first=118 second=225 amount=-1  
kerning first=118 second=224 amount=-1  
kerning first=118 second=97  amount=-1  
kerning first=118 second=46  amount=-3  
kerning first=118 second=44  amount=-3  
kerning first=116 second=133 amount=-2  
kerning first=116 second=230 amount=-1  
kerning first=116 second=229 amount=-1  
kerning first=80  second=133 amount=-4  
kerning first=116 second=228 amount=-1  
kerning first=116 second=227 amount=-1  
kerning first=116 second=226 amount=-1  
kerning first=116 second=225 amount=-1  
kerning first=116 second=224 amount=-1  
kerning first=116 second=97  amount=-1  
kerning first=116 second=46  amount=-2  
kerning first=116 second=44  amount=-2  
kerning first=114 second=116 amount=-1  
kerning first=112 second=133 amount=-3  
kerning first=112 second=230 amount=-1  
kerning first=112 second=229 amount=-1  
kerning first=112 second=228 amount=-1  
kerning first=112 second=227 amount=-1  
kerning first=112 second=226 amount=-1  
kerning first=112 second=225 amount=-1  
kerning first=112 second=224 amount=-1  
kerning first=112 second=97  amount=-1  
kerning first=112 second=46  amount=-3  
kerning first=112 second=44  amount=-3  
kerning first=84  second=224 amount=-1  
kerning first=84  second=198 amount=-1  
kerning first=84  second=197 amount=-1  
kerning first=84  second=196 amount=-1  
kerning first=84  second=195 amount=-1  
kerning first=84  second=194 amount=-1  
kerning first=84  second=193 amount=-1  
kerning first=102 second=133 amount=-2  
kerning first=102 second=46  amount=-2  
kerning first=102 second=44  amount=-2  
kerning first=101 second=120 amount=1   
kerning first=98  second=118 amount=-1  
kerning first=97  second=148 amount=-2  
kerning first=97  second=146 amount=-2  
kerning first=97  second=255 amount=-1  
kerning first=97  second=253 amount=-1  
kerning first=97  second=121 amount=-1  
kerning first=97  second=119 amount=-1  
kerning first=97  second=118 amount=-2  
kerning first=97  second=116 amount=-1  
kerning first=91  second=255 amount=1   
kerning first=91  second=253 amount=1   
kerning first=91  second=121 amount=1   
kerning first=90  second=156 amount=-1  
kerning first=90  second=248 amount=-1  
kerning first=90  second=246 amount=-1  
kerning first=90  second=245 amount=-1  
kerning first=90  second=244 amount=-1  
kerning first=90  second=243 amount=-1  
kerning first=90  second=242 amount=-1  
kerning first=90  second=231 amount=-1  
kerning first=90  second=113 amount=-1  
kerning first=90  second=111 amount=-1  
kerning first=90  second=103 amount=-1  
kerning first=90  second=99  amount=-1  
kerning first=89  second=133 amount=-2  
kerning first=82  second=84  amount=-1  
kerning first=89  second=148 amount=1   
kerning first=89  second=146 amount=1   
kerning first=89  second=156 amount=-1  
kerning first=89  second=248 amount=-1  
kerning first=89  second=246 amount=-1  
kerning first=89  second=245 amount=-1  
kerning first=89  second=244 amount=-1  
kerning first=89  second=243 amount=-1  
kerning first=89  second=242 amount=-1  
kerning first=89  second=231 amount=-1  
kerning first=82  second=116 amount=-1  
kerning first=89  second=230 amount=-1  
kerning first=89  second=229 amount=-1  
kerning first=89  second=228 amount=-1  
kerning first=89  second=227 amount=-1  
kerning first=89  second=226 amount=-1  
kerning first=89  second=225 amount=-1  
kerning first=89  second=224 amount=-1  
kerning first=89  second=198 amount=-1  
kerning first=89  second=197 amount=-1  
kerning first=89  second=196 amount=-1  
kerning first=89  second=195 amount=-1  
kerning first=89  second=194 amount=-1  
kerning first=89  second=193 amount=-1  
kerning first=89  second=192 amount=-1  
kerning first=89  second=125 amount=1   
kerning first=89  second=113 amount=-1  
kerning first=89  second=111 amount=-1  
kerning first=89  second=103 amount=-1  
kerning first=89  second=99  amount=-1  
kerning first=89  second=97  amount=-1  
kerning first=89  second=93  amount=1   
kerning first=89  second=65  amount=-1  
kerning first=89  second=46  amount=-2  
kerning first=89  second=44  amount=-2  
kerning first=89  second=41  amount=1   
kerning first=87  second=133 amount=-2  
kerning first=87  second=148 amount=1   
kerning first=87  second=146 amount=1   
kerning first=87  second=230 amount=-1  
kerning first=87  second=229 amount=-1  
kerning first=87  second=228 amount=-1  
kerning first=87  second=227 amount=-1  
kerning first=87  second=226 amount=-1  
kerning first=87  second=225 amount=-1  
kerning first=87  second=224 amount=-1  
kerning first=87  second=198 amount=-1  
kerning first=87  second=197 amount=-1  
kerning first=87  second=196 amount=-1  
kerning first=87  second=195 amount=-1  
kerning first=87  second=194 amount=-1  
kerning first=87  second=193 amount=-1  
kerning first=87  second=192 amount=-1  
kerning first=87  second=97  amount=-1  
kerning first=84  second=44  amount=-3  
kerning first=87  second=65  amount=-1  
kerning first=84  second=46  amount=-3  
kerning first=87  second=46  amount=-2  
kerning first=87  second=44  amount=-2  
kerning first=84  second=65  amount=-1  
kerning first=86  second=133 amount=-3  
kerning first=86  second=148 amount=1   
kerning first=86  second=146 amount=1   
kerning first=86  second=230 amount=-2  
kerning first=86  second=229 amount=-2  
kerning first=86  second=228 amount=-2  
