##############################
# Supremacist Faction
##############################

supremacist = {
	election_header = "GFX_faction_header_yellow"
	guiding_ethic = ethic_xenophobe

	unique = yes
	support_multiplier = 1

	resources = {
		category = pop_factions
		produces = {
			influence = 2
		}
	}

	is_potential = {
		years_passed > 10
		has_encountered_other_species = yes
		NOT = { has_ethic = ethic_gestalt_consciousness }
		count_owned_pops = {
			count >= 5
			limit = {
				has_ethic = ethic_xenophobe
			}
		}
	}

	parameters = {
		empire = {
			type = country
			valid_objects = {
				is_same_value = root
			}
		}
	}

	can_join_pre_triggers = {
		is_enslaved = no
		is_being_purged = no
	}

	can_join_faction = {
		is_shackled_robot = no
		has_culture_shock = no
		NOT = { has_trait = trait_nerve_stapled }
		OR = {
			has_ethic = ethic_xenophobe
			has_ethic = ethic_fanatic_xenophobe
		}
		owner = {
			NOR = {
				has_ethic = ethic_pacifist
				has_ethic = ethic_fanatic_pacifist
			}
		}
		is_same_species = owner_species
	}

	attraction = {
		base = 100

		modifier = {
			factor = 1.25
			exists = from
			from = {
				exists = leader
				leader = { leader_class = ruler }
			}
		}

		modifier = {
			factor = 0.75
			exists = from
			from = {
				NOT = { exists = leader }
			}
		}
	}

	leader = {
		base = 100

		modifier = {
			factor = 0.5
			leader_class = scientist
		}

		modifier = {
			factor = 0
			NOT = { is_same_species = owner_species }
		}

		modifier = {
			factor = 0
			species = {
				has_trait = "trait_mechanical"
			}
		}

		modifier = {
			factor = 0.0
			is_event_leader = yes
		}

		modifier = {
			factor = 0.0
			has_leader_flag = mon_mothma
		}
	}

	demand = {
		title = "FACTION_OUTRAGED_GC"
		unfulfilled_title = "FACTION_OUTRAGED_GC"
		desc = "FACTION_OUTRAGED_GC_DESC"

		fulfilled_effect = -20
		unfulfilled_effect = -0.001

		potential = {
			exists = owner
			owner = {
				has_country_flag = faction_xenophobe_supremacist_outraged_gc
			}
		}

		trigger = {
			owner = {
				has_country_flag = faction_xenophobe_supremacist_outraged_gc
			}
		}
	}

	demand = {
		title = "SUPREMACIST_RULER_SAME_SPECIES"
		unfulfilled_title = "SUPREMACIST_RULER_NOT_SAME_SPECIES"
		desc = "SUPREMACIST_RULER_NOT_SAME_SPECIES_DESC"

		fulfilled_effect = 10
		unfulfilled_effect = -30

		potential = {
			exists = owner
			owner = { NOT = { has_valid_civic = civic_fanatic_purifiers } }
		}

		trigger = {
			owner = {
				exists = ruler
				ruler = { is_same_species = owner_species }
			}
		}
	}

	demand = {
		title = "SUPREMACIST_ISOLATIONIST_NO_FEDERATION"
		unfulfilled_title = "SUPREMACIST_ISOLATIONIST_FEDERATION"
		desc = "SUPREMACIST_ISOLATIONIST_NO_FEDERATION_DESC"

		fulfilled_effect = 10
		unfulfilled_effect = -20

		potential = {
			exists = owner
			owner = {
				num_communications > 0
			}
		}

		trigger = {
			owner = {
				has_federation = no
			}
		}
	}

	demand = {
		title = "SUPREMACIST_UNRESTRICTED_STUDY"
		unfulfilled_title = "SUPREMACIST_NO_UNRESTRICTED_STUDY"
		desc = "SUPREMACIST_UNRESTRICTED_STUDY_DESC"

		fulfilled_effect = 5
		unfulfilled_effect = -10

		potential = {
			exists = owner
			owner = {
				NOT = { has_valid_civic = civic_fanatic_purifiers }
				any_relation = {
					#has_communications = root
					is_country_type = primitive
				}
			}
		}

		trigger = {
			owner = {
				has_policy_flag = interference_full
			}
		}
	}

	demand = {
		title = "SUPREMACIST_NO_FREE_ALIENS"
		unfulfilled_title = "SUPREMACIST_HAS_FREE_ALIENS"
		desc = "SUPREMACIST_ALIEN_SLAVES_DESC"

		fulfilled_effect = 5
		unfulfilled_effect = -10

		potential = {
			exists = owner
			owner = {
				NOT = { has_valid_civic = civic_fanatic_purifiers }
				any_owned_pop = {
					NOT = { is_same_species = owner_species }
					is_robot_pop = no
					is_sapient = yes
					is_being_purged = no
				}
			}
		}

		trigger = {
			owner = {
				NOT = {
					any_owned_pop = {
						NOT = {
							is_same_species = root.owner
						}
						is_robot_pop = no
						is_sapient = yes
						has_citizenship_type = { type = citizenship_full }
					}
				}
			}
		}
	}

	demand = {
		title = "SUPREMACIST_NO_MIGRATION_TREATIES"
		unfulfilled_title = "SUPREMACIST_MIGRATION_TREATIES"
		desc = "SUPREMACIST_NO_MIGRATION_TREATIES_DESC"

		unfulfilled_effect = -10
		fulfilled_effect = 0.001

		potential = {
			exists = owner
			owner = {
				NOT = { has_valid_civic = civic_fanatic_purifiers }
				num_communications > 2
			}
		}

		trigger = {
			owner = {
				NOT = {
					any_country = {
						is_country_type = default
						has_communications = root.owner
						OR = {
							has_diplo_migration_treaty = root.owner
							root = {
								owner = {
									has_diplo_migration_treaty = prevprev
								}
							}
						}
					}
				}
			}
		}
	}

	demand = {
		title = "SUPREMACIST_DOMINATION"
		desc = "SUPREMACIST_DOMINATION_DESC"
		unfulfilled_title = "SUPREMACIST_NO_DOMINATION"

		fulfilled_effect = 10
		unfulfilled_effect = -0.001

		potential = {
			exists = owner
			owner = {
				NOT = { has_valid_civic = civic_fanatic_purifiers }
				any_relation = {
					is_country_type = default
					has_communications = root.owner
					NOT = {
						is_in_federation_with = root.owner
					}
				}
			}
		}

		trigger = {
			owner = {
				has_country_flag = entered_war_as_attacker
			}
		}
	}

	demand = {
		title = "SUPREMACIST_FANATIC_PURIFIERS"
		unfulfilled_title = "SUPREMACIST_NOT_FANATIC_PURIFIERS"
		desc = "SUPREMACIST_FANATIC_PURIFIERS_DESC"

		fulfilled_effect = 10
		unfulfilled_effect = -0.001

		potential = {
			exists = owner
			owner = {
				has_valid_civic = civic_fanatic_purifiers
			}
		}

		trigger = {
			owner = {
				has_valid_civic = civic_fanatic_purifiers
			}
		}
	}

	demand = {
		title = "SUPREMACIST_GIANT_MASSACRE"
		unfulfilled_title = "SUPREMACIST_NO_GIANT_MASSACRE"
		desc = "SUPREMACIST_GIANT_MASSACRE_DESC"

		fulfilled_effect = 10
		unfulfilled_effect = -0.001

		potential = {
			exists = owner
			owner = {
				host_has_dlc = "Leviathans Story Pack"
				any_country = {
					OR = {
						is_country_type = guardian
						is_country_type = guardian_dragon
						is_country_type = guardian_stellarite
						is_country_type = guardian_wraith
						is_country_type = guardian_hiver
						is_country_type = guardian_horror
						is_country_type = guardian_fortress
						is_country_type = guardian_dreadnought
						is_country_type = guardian_sphere
						is_country_type = guardian_scavenger_bot
						is_country_type = guardian_elderly_tiyanki
						is_country_type = guardian_hatchling
					}
					has_communications = prev
				}
			}
		}

		trigger = {
			owner = {
				has_country_flag = killed_guardian
			}
		}
	}

	demand = {
		title = "SUPREMACIST_PROCLAIM_SUPREMACY"
		unfulfilled_title = "SUPREMACIST_NO_PROCLAIM_SUPREMACY"
		desc = "SUPREMACIST_PROCLAIM_SUPREMACY_DESC"

		fulfilled_effect = 5
		unfulfilled_effect = -0.001

		potential = {
			exists = owner
			owner = {
				has_modifier = proclaim_superiority
			}
		}

		trigger = {
			owner = {
				has_modifier = proclaim_superiority
			}
		}
	}

	demand = {
		title = "SUPREMACIST_CELEBRATE_DIVERSITY"
		unfulfilled_title = "SUPREMACIST_NO_CELEBRATE_DIVERSITY"
		desc = "SUPREMACIST_CELEBRATE_DIVERSITY_DESC"

		unfulfilled_effect = -5
		fulfilled_effect = 0.001

		potential = {
			exists = owner
			owner = {
				has_modifier = celebrate_diversity
			}
		}

		trigger = {
			owner = {
				NOT = { has_modifier = celebrate_diversity }
			}
		}
	}

	demand = {
		title = "STRONG_DIPLO_STANCE"
		unfulfilled_title = "STRONG_DIPLO_STANCE"
		desc = "STRONG_DIPLO_STANCE_DESC"

		fulfilled_effect = 10
		unfulfilled_effect = -0.001

		potential = {
			exists = owner
			owner = {
				is_homicidal = no
				is_country_type = default
				OR = {
					has_policy_flag = diplo_stance_belligerent
					has_policy_flag = diplo_stance_supremacist
				}
			}
		}

		trigger = {
			owner = {
				OR = {
					has_policy_flag = diplo_stance_belligerent
					has_policy_flag = diplo_stance_supremacist
				}
			}
		}
	}

	demand = {
		title = "WEAK_DIPLO_STANCE"
		unfulfilled_title = "WEAK_DIPLO_STANCE"
		desc = "WEAK_DIPLO_STANCE_DESC"

		fulfilled_effect = 0.01
		unfulfilled_effect = -10

		potential = {
			exists = owner
			owner = {
				is_homicidal = no
				is_country_type = default
				has_policy_flag = diplo_stance_cooperative
			}
		}

		trigger = {
			owner = {
				NOT = { has_policy_flag = diplo_stance_cooperative }
			}
		}
	}

	on_create = {
		pop_faction_event = { id = factions.1 }
	}

	on_destroy = {
		if = {
			limit = {
				has_modifier = promoted_xenophobe
			}
			remove_modifier = promoted_xenophobe
		}
		if = {
			limit = {
				has_modifier = suppressed_xenophobe
			}
			remove_modifier = suppressed_xenophobe
		}
	}

	actions = {
		embrace_faction = {
			title = "EMBRACE_FACTION"
			description = "EMBRACE_FACTION_DESC"

			cost = {
				influence = 500
			}

			potential = {
				exists = owner
				owner = {
					OR = {
						is_subject = no
						NOT = { is_subject_type = dominion }
					}
				}
			}

			valid = {
				custom_tooltip = {
					fail_text = EMBRACE_FACTION_COOLDOWN
					parameter:empire = {
						NOT = { has_modifier = embraced_faction_timer }
					}
				}
				support > 0.20
				parameter:empire = {
					NOT = { has_ethic = "ethic_fanatic_xenophobe" }
				}
			}

			effect = {
				add_modifier = { modifier = embraced_faction days = 3600 }
				parameter:empire = {
					shift_ethic = ethic_xenophobe
					hidden_effect = {
						every_pop_faction = { # embraces xenophobe ethos
							limit = { is_pop_faction_type = isolationist }
							add_modifier = { modifier = embraced_faction days = 3600 	}
						}
						add_modifier = { modifier = embraced_faction_timer days = 3600 }
						every_pop_faction = {
							limit = {
								NOR = {
									is_same_value = root
									is_pop_faction_type = isolationist # same ethos
								}
							}
							add_modifier = { modifier = embraced_another_faction days = 3600 }
						}
					}
				}
				hidden_effect = {
					save_event_target_as = TargetFaction
					parameter:empire = {
						every_relation = {
							limit = {
								is_ai = no
								is_country_type = default
								has_communications = prev
							}
							country_event = { id = factions.2000 }
						}
					}
				}
			}

			ai_weight = {
				base = 1
				modifier = {
					factor = 0
					support < 0.50
					owner = {
						has_ethic = ethic_xenophobe
					}
				}
				modifier = {
					factor = 0
					owner = { has_valid_civic = civic_fanatic_purifiers }
				}
				modifier = {
					factor = 0
					NOT = {
						owner = {
							exists = ruler
							ruler = {
								leader_of_faction = supremacist
							}
						}
					}
				}
				modifier = {
					factor = 0
					owner = {
						count_pop_faction = {
							count < 4
						}
					}
				}
			}
		}
		promote_faction = {
			title = "PROMOTE_FACTION"
			description = "PROMOTE_FACTION_DESC"

			potential = {
				exists = owner
				parameter:empire = {
					NOR = {
						has_modifier = suppressed_xenophobe
						has_modifier = promoted_xenophobe
					}
				}
			}

			effect = {
				parameter:empire = {
					add_modifier = { modifier = promoted_xenophobe days = -1 }
				}
			}

			ai_weight = {
				base = 0
			}
		}
		cancel_promote_faction = {
			title = "CANCEL_PROMOTE_FACTION"
			description = "CANCEL_PROMOTE_FACTION_DESC"

			potential = {
				exists = owner
				parameter:empire = { has_modifier = promoted_xenophobe }
			}

			effect = {
				parameter:empire = {
					remove_modifier = promoted_xenophobe
				}
			}

			ai_weight = {
				base = 0
			}
		}
		suppress_faction = {
			title = "SUPPRESS_FACTION"
			description = "SUPPRESS_FACTION_DESC"

			potential = {
				exists = owner
				parameter:empire = {
					NOR = {
						has_modifier = suppressed_xenophobe
						has_modifier = promoted_xenophobe
					}
				}
			}

			effect = {
				add_modifier = { modifier = suppressed_faction days = -1 }
				parameter:empire = {
					hidden_effect = {
						every_pop_faction = {
							limit = { is_pop_faction_type = isolationist }
							add_modifier = { modifier = suppressed_faction days = -1 }
						}
					}
					add_modifier = { modifier = suppressed_xenophobe days = -1 }
				}
			}

			ai_weight = {
				base = 0
			}
		}
		cancel_suppress_faction = {
			title = "CANCEL_SUPPRESS_FACTION"
			description = "CANCEL_SUPPRESS_FACTION_DESC"

			potential = {
				exists = owner
				parameter:empire = { has_modifier = suppressed_xenophobe }
			}

			effect = {
				remove_modifier = suppressed_faction
				parameter:empire = {
					remove_modifier = suppressed_xenophobe
					hidden_effect = {
						every_pop_faction = {
							limit = { is_pop_faction_type = isolationist }
							remove_modifier = suppressed_faction
						}
					}
				}
			}

			ai_weight = {
				base = 0
			}
		}
	}
}