### 
tr_diplomacy_adopt = {
   modifier = {
      diplomacy_upkeep_mult = -0.5
      pop_growth_from_immigration = 0.10
   }

   tradition_swap = {
      name = tr_adaptability_adopt
      inherit_effects = no
      inherit_name = yes
      inherit_icon = yes
      trigger = { OR = {
                             has_valid_civic = civic_fanatic_purifiers
                             has_valid_civic = civic_inwards_perfection
                             is_hive_empire = yes
                             has_valid_civic = civic_barbaric_despoilers
                     } }
      modifier = {
         pop_housing_usage_mult = -0.10
      }
      weight = { factor = 1 }
   }

   tradition_swap = {
      name = tr_subterfuge_adopt
      inherit_effects = no
      inherit_name = yes
      inherit_icon = yes
      trigger = { xenophobe_country_traditions = yes }
      modifier = {
         diplomacy_upkeep_mult = -0.5
         pop_growth_from_immigration = 0.10
      }
      weight = { factor = 1 }
   }

   tradition_swap = {
      name = tr_versatility_adopt
      inherit_effects = no
      inherit_name = yes
      inherit_icon = yes
      trigger = { is_machine_empire = yes }
      modifier = {
         planet_pop_assemblers_upkeep_mult = -0.10
      }
      weight = { factor = 1 }
   }

   tradition_swap = {
      name = tr_compnor_adopt
      inherit_effects = no
      inherit_name = yes
      inherit_icon = yes
      trigger = { has_country_flag = galactic_empire }
      modifier = {
         max_rivalries = 2
      }
      weight = { factor = 1 }
   }

   tradition_swap = {
      name = tr_rebel_alliance_adopt
      inherit_effects = no
      inherit_name = yes
      inherit_icon = yes
      trigger = { OR = {
                             has_country_flag = senate_loyalists
                             has_country_flag = rebel_alliance
                     } }
      modifier = {
         diplomacy_upkeep_mult = -0.5
         pop_growth_from_immigration = 0.10
      }
      weight = { factor = 1 }
   }

   tradition_swap = {
      name = tr_cartel_adopt
      inherit_effects = no
      inherit_name = yes
      inherit_icon = yes
      trigger = { has_country_flag = hutt_cartel }
      modifier = {
         diplomacy_upkeep_mult = -0.5
         pop_growth_from_immigration = 0.10
      }
      weight = { factor = 1 }
   }
   ai_weight = {
      factor = 10
      modifier = {
         factor = 2
         has_ethic = ethic_xenophile
      }
      modifier = {
         factor = 3
         has_ethic = ethic_fanatic_xenophile
      }
   }
}

### Diplomatic Channels
tr_diplomacy_the_federation = {
   modifier = {
      envoys_add = 1
   }

   tradition_swap = {
      name = tr_adaptability_dietary_enrichment
      inherit_effects = no
      inherit_name = no
      inherit_icon = no
      trigger = { OR = {
                             has_valid_civic = civic_fanatic_purifiers
                             has_valid_civic = civic_inwards_perfection
                             has_valid_civic = civic_hive_devouring_swarm
                             has_valid_civic = civic_barbaric_despoilers
                     } }
      modifier = {
         country_food_produces_mult = 0.10
      }
      weight = { factor = 1 }
   }

   tradition_swap = {
      name = tr_subterfuge_self_reliance
      inherit_effects = no
      inherit_name = no
      inherit_icon = no
      trigger = { OR = {
                             is_hive_empire = yes
                             xenophobe_country_traditions = yes
                             has_country_flag = senate_loyalists
                             has_country_flag = rebel_alliance
                     } }
      modifier = {
         country_naval_cap_mult = 0.1
      }
      weight = { factor = 1 }
   }

   tradition_swap = {
      name = tr_versatility_universal_compatibility
      inherit_effects = no
      inherit_name = no
      inherit_icon = no
      trigger = { is_machine_empire = yes }
      modifier = {
         country_synthetic_trust_cap_add = 50
      }
      weight = { factor = 1 }
   }

   tradition_swap = {
      name = tr_compnor_enforcement
      inherit_effects = no
      inherit_name = no
      inherit_icon = no
      trigger = { has_country_flag = galactic_empire }
      modifier = {
         country_naval_cap_mult = 0.1
         country_command_limit_add = 30
      }
      weight = { factor = 1 }
   }

   tradition_swap = {
      name = tr_cartel_self_reliance
      inherit_effects = no
      inherit_name = no
      inherit_icon = no
      trigger = { has_country_flag = hutt_cartel }
      modifier = {
         country_naval_cap_mult = 0.15
      }
      weight = { factor = 1 }
   }
   ai_weight = {
      factor = 1000
   }
}

### Defensive Coordination
tr_diplomacy_entente_coordination = {
   modifier = {
      ship_home_territory_fire_rate_mult = 0.1
   }
   possible = {
      has_tradition = tr_diplomacy_the_federation
   }

   tradition_swap = {
      name = tr_adaptability_survival_fittest
      inherit_effects = no
      inherit_name = no
      inherit_icon = no
      trigger = { OR = {
                             has_valid_civic = civic_fanatic_purifiers
                             has_valid_civic = civic_inwards_perfection
                             is_hive_empire = yes
                             has_valid_civic = civic_barbaric_despoilers
                     } }
      modifier = {
         planet_orbital_bombardment_damage = -0.25
         army_defense_damage_mult = 0.10
      }
      weight = { factor = 1 }
   }

   tradition_swap = {
      name = tr_subterfuge_inherently_distrustful
      inherit_effects = no
      inherit_name = no
      inherit_icon = no
      trigger = { xenophobe_country_traditions = yes }
      modifier = {
         pop_factions_influence_produces_add = 1
         army_defense_damage_mult = 0.10
      }
      weight = { factor = 1 }
   }

   tradition_swap = {
      name = tr_versatility_adaptive_programming
      inherit_effects = no
      inherit_name = no
      inherit_icon = no
      trigger = { is_machine_empire = yes }
      modifier = {
         country_trade_fee = -0.10
      }
      weight = { factor = 1 }
   }

   tradition_swap = {
      name = tr_compnor_coalition_progress
      inherit_effects = no
      inherit_name = no
      inherit_icon = no
      trigger = { has_country_flag = galactic_empire }
      modifier = {
         rivalries_influence_produces_mult = 0.25
         country_trust_growth = 0.33
      }
      weight = { factor = 1 }
   }

   tradition_swap = {
      name = tr_rebel_alliance_makeshift_armadas
      inherit_effects = no
      inherit_name = no
      inherit_icon = no
      trigger = { OR = {
                             has_country_flag = senate_loyalists
                             has_country_flag = rebel_alliance
                     } }
      modifier = {
         country_naval_cap_mult = 0.15
         country_command_limit_add = 30
      }
      weight = { factor = 1 }
   }

   tradition_swap = {
      name = tr_cartel_inherently_distrustful
      inherit_effects = no
      inherit_name = no
      inherit_icon = no
      trigger = { has_country_flag = hutt_cartel }
      modifier = {
         pop_factions_influence_produces_add = 1
      }
      weight = { factor = 1 }
   }
   ai_weight = {
      factor = 5000
   }
}

### Open Markets
tr_diplomacy_open_markets = {
   modifier = {
      trade_value_mult = 0.05
      planet_max_buildings_add = 1
   }

   tradition_swap = {
      name = tr_adaptability_environmental_diversification
      inherit_effects = no
      inherit_name = no
      inherit_icon = no
      trigger = { OR = {
         has_valid_civic = civic_fanatic_purifiers
         has_valid_civic = civic_inwards_perfection
         is_hive_empire = yes
         has_valid_civic = civic_barbaric_despoilers
      } }
      modifier = {
         pop_environment_tolerance = 0.05
      }
      weight = { factor = 1 }
   }

   tradition_swap = {
      name = tr_versatility_spatial_optimization
      inherit_effects = no
      inherit_name = no
      inherit_icon = no
      trigger = { OR = {
                             is_machine_empire = yes
                             xenophobe_country_traditions = yes
                     } }
      modifier = {
         pop_housing_usage_mult = -0.10
      }
      weight = { factor = 1 }
   }

   tradition_swap = {
      name = tr_compnor_internal_ubiqtorate
      inherit_effects = no
      inherit_name = no
      inherit_icon = no
      trigger = { has_country_flag = galactic_empire }
      modifier = {
         envoys_add = 1
      }
      weight = { factor = 1 }
   }

   tradition_swap = {
      name = tr_rebel_alliance_solidarity
      inherit_effects = no
      inherit_name = no
      inherit_icon = no
      trigger = { OR = {
                             has_country_flag = senate_loyalists
                             has_country_flag = rebel_alliance
                     } }
      modifier = {
         envoys_add = 1
      }
      weight = { factor = 1 }
   }

   tradition_swap = {
      name = tr_cartel_puppet_govs
      inherit_effects = no
      inherit_name = no
      inherit_icon = no
      trigger = { has_country_flag = hutt_cartel }
      modifier = {
         envoys_add = 1
      }
      weight = { factor = 1 }
   }
   ai_weight = {
      factor = 5000
   }
}

### Insider Trading
tr_diplomacy_insider_trading = {
   modifier = {
      country_trade_fee = -0.10
   }
   possible = {
      has_tradition = tr_diplomacy_open_markets
   }

   tradition_swap = {
      name = tr_adaptability_adaptive_ecology
      inherit_effects = no
      inherit_name = no
      inherit_icon = no
      trigger = { OR = {
         has_valid_civic = civic_fanatic_purifiers
         has_valid_civic = civic_inwards_perfection
         is_hive_empire = yes
         has_valid_civic = civic_barbaric_despoilers
      } }
      modifier = {
         planet_max_buildings_add = 1
      }
      weight = { factor = 1 }
   }

   tradition_swap = {
      name = tr_subterfuge_terrestrial_study
      inherit_effects = no
      inherit_name = no
      inherit_icon = yes
      trigger = { xenophobe_country_traditions = yes }
      modifier = {
         pop_environment_tolerance = 0.10
      }
      weight = { factor = 1 }
   }

   tradition_swap = {
      name = tr_versatility_material_analysis
      inherit_effects = no
      inherit_name = no
      inherit_icon = no
      trigger = { is_machine_empire = yes }
      modifier = {
         planet_max_buildings_add = 1
      }
      weight = { factor = 1 }
   }

   tradition_swap = {
      name = tr_compnor_frontier_initiative
      inherit_effects = no
      inherit_name = no
      inherit_icon = no
      trigger = { has_country_flag = galactic_empire }
      modifier = {
         planet_max_buildings_add = 1
      }
      weight = { factor = 1 }
   }

   tradition_swap = {
      name = tr_rebel_alliance_connections
      inherit_effects = no
      inherit_name = no
      inherit_icon = no
      trigger = { OR = {
                             has_country_flag = senate_loyalists
                             has_country_flag = rebel_alliance
                     } }
      modifier = {
         planet_max_buildings_add = 1
      }
   on_enabled = { set_country_flag = rebel_outposts_allowed }
      weight = { factor = 1 }
   }
   ai_weight = {
      factor = 1000
   }
}

### Secure Shipping
tr_diplomacy_secure_shipping = {
   modifier = {
      local_trade_protection_add = 5
   }
   possible = {
      has_tradition = tr_diplomacy_open_markets
   }

   tradition_swap = {
      name = tr_adaptability_appropriation
      inherit_effects = no
      inherit_name = no
      inherit_icon = no
      trigger = { OR = {
         has_valid_civic = civic_fanatic_purifiers
         has_valid_civic = civic_inwards_perfection
         is_hive_empire = yes
         has_valid_civic = civic_barbaric_despoilers
      } }
      modifier = {
         pop_resettlement_cost_mult = -0.33
      }
      weight = { factor = 1 }
   }

   tradition_swap = {
      name = tr_subterfuge_saboteurs
      inherit_effects = no
      inherit_name = no
      inherit_icon = no
      trigger = { OR = {
                             has_country_flag = hutt_cartel
                             xenophobe_country_traditions = yes
                     } }
      modifier = {
         leader_skill_levels = 2
      }
      weight = { factor = 1 }
   }

   tradition_swap = {
      name = tr_versatility_operational_proxies
      inherit_effects = no
      inherit_name = no
      inherit_icon = no
      trigger = { is_machine_empire = yes }
      modifier = {
         pop_resettlement_cost_mult = -0.33
      }
      weight = { factor = 1 }
   }

   tradition_swap = {
      name = tr_compnor_security_bureau
      inherit_effects = no
      inherit_name = no
      inherit_icon = no
      trigger = { has_country_flag = galactic_empire }
      modifier = {
         local_trade_protection_add = 5
      }
      weight = { factor = 1 }
   }

   tradition_swap = {
      name = tr_rebel_alliance_recruit_cause
      inherit_effects = no
      inherit_name = no
      inherit_icon = no
      trigger = { OR = {
                             has_country_flag = senate_loyalists
                             has_country_flag = rebel_alliance
                     } }
      modifier = {
         local_trade_protection_add = 2.5
         leader_skill_levels = 1
      }
      weight = { factor = 1 }
   }
   ai_weight = {
      factor = 5000
   }
}

### 
tr_diplomacy_finish = {
   modifier = {
      ascension_perks_add = 1
      country_trust_cap_add = 50
      country_trust_growth = 0.33
   }

   tradition_swap = {
      name = tr_adaptability_finish
      inherit_effects = no
      inherit_name = yes
      inherit_icon = yes
      trigger = { OR = {
                             has_valid_civic = civic_fanatic_purifiers
                             has_valid_civic = civic_inwards_perfection
                             is_hive_empire = yes
                             has_valid_civic = civic_barbaric_despoilers
                     } }
      modifier = {
         ascension_perks_add = 1
         empire_size_penalty_mult = -0.05
      }
      weight = { factor = 1 }
   }

   tradition_swap = {
      name = tr_subterfuge_finish
      inherit_effects = no
      inherit_name = yes
      inherit_icon = yes
      trigger = { xenophobe_country_traditions = yes }
      modifier = {
         ascension_perks_add = 1
         rivalries_influence_produces_mult = 0.25
      }
      weight = { factor = 1 }
   }

   tradition_swap = {
      name = tr_versatility_finish
      inherit_effects = no
      inherit_name = yes
      inherit_icon = yes
      trigger = { is_machine_empire = yes }
      modifier = {
         ascension_perks_add = 1
         planet_building_refund_mult = 0.5
      }
      weight = { factor = 1 }
   }

   tradition_swap = {
      name = tr_compnor_finish
      inherit_effects = no
      inherit_name = yes
      inherit_icon = yes
      trigger = { has_country_flag = galactic_empire }
      modifier = {
         ascension_perks_add = 1
         country_base_influence_produces_add = 1
      }
      weight = { factor = 1 }
   }

   tradition_swap = {
      name = tr_rebel_alliance_finish
      inherit_effects = no
      inherit_name = yes
      inherit_icon = yes
      trigger = { OR = {
                             has_country_flag = senate_loyalists
                             has_country_flag = rebel_alliance
                     } }
      modifier = {
         ascension_perks_add = 1
         country_trust_cap_add = 50
         country_trust_growth = 0.33
      }
      weight = { factor = 1 }
   }

   tradition_swap = {
      name = tr_cartel_finish
      inherit_effects = no
      inherit_name = yes
      inherit_icon = yes
      trigger = { has_country_flag = hutt_cartel }
      modifier = {
         ascension_perks_add = 1
         rivalries_influence_produces_mult = 0.25
      }
      weight = { factor = 1 }
   }
}

### 
tr_discovery_adopt = {
   modifier = {
      ship_anomaly_research_speed_mult = 0.20
   }

   tradition_swap = {
      name = tr_discovery_adopt_hive
      inherit_effects = no
      inherit_name = yes
      inherit_icon = yes
      trigger = { is_hive_empire = yes }
      modifier = {
         ship_anomaly_research_speed_mult = 0.20
      }
      weight = { factor = 1 }
   }

   tradition_swap = {
      name = tr_doctrine_adopt
      inherit_effects = no
      inherit_name = yes
      inherit_icon = yes
      trigger = { spiritualist_country_traditions = yes }
      modifier = {
         country_unity_produces_mult = 0.1
      }
      weight = { factor = 1 }
   }

   tradition_swap = {
      name = tr_discovery_adopt_machine
      inherit_effects = no
      inherit_name = yes
      inherit_icon = yes
      trigger = { is_machine_empire = yes }
      modifier = {
         ship_anomaly_research_speed_mult = 0.20
      }
      weight = { factor = 1 }
   }

   tradition_swap = {
      name = tr_imperial_research_adopt
      inherit_effects = no
      inherit_name = yes
      inherit_icon = yes
      trigger = { has_country_flag = galactic_empire }
      modifier = {
         ship_anomaly_research_speed_mult = 0.20
      }
      weight = { factor = 1 }
   }

   tradition_swap = {
      name = tr_council_adopt
      inherit_effects = no
      inherit_name = yes
      inherit_icon = yes
      trigger = { council_country_traditions = yes }
      modifier = {
         country_unity_produces_mult = 0.1
      }
      weight = { factor = 1 }
   }
   ai_weight = {
      factor = 10
      modifier = {
         factor = 2
         has_ethic = ethic_materialist
      }
      modifier = {
         factor = 3
         has_ethic = ethic_fanatic_materialist
      }
   }
}

### Galactic Survey
tr_discovery_to_boldly_go = {
   modifier = {
      science_ship_survey_speed = 0.35
      shipclass_science_ship_disengage_mult = 0.5
   }

   tradition_swap = {
      name = tr_discovery_to_boldly_go_hive
      inherit_effects = no
      inherit_name = no
      inherit_icon = yes
      trigger = { is_hive_empire = yes }
      modifier = {
         science_ship_survey_speed = 0.35
         shipclass_science_ship_disengage_mult = 0.5
      }
      weight = { factor = 1 }
   }

   tradition_swap = {
      name = tr_doctrine_spiritual_attunement
      inherit_effects = no
      inherit_name = no
      inherit_icon = no
      trigger = { spiritualist_country_traditions = yes }
      modifier = {
         leader_skill_levels = 2
      }
      weight = { factor = 1 }
   }

   tradition_swap = {
      name = tr_discovery_to_boldly_go_machine
      inherit_effects = no
      inherit_name = no
      inherit_icon = yes
      trigger = { is_machine_empire = yes }
      modifier = {
         science_ship_survey_speed = 0.35
         shipclass_science_ship_disengage_mult = 0.5
      }
      weight = { factor = 1 }
   }

   tradition_swap = {
      name = tr_imperial_research_military
      inherit_effects = no
      inherit_name = no
      inherit_icon = no
      trigger = { has_country_flag = galactic_empire }
      modifier = {
         army_damage_mult = 0.05
         armies_upkeep_mult = -0.10
      }
      weight = { factor = 1 }
   }

   tradition_swap = {
      name = tr_council_leaders
      inherit_effects = no
      inherit_name = no
      inherit_icon = no
      trigger = { council_country_traditions = yes }
      modifier = {
         leader_skill_levels = 1
         scientist_skill_levels = 1
      }
      weight = { factor = 1 }
   }
   ai_weight = {
      factor = 5000
   }
}

### Holonet Uplinks
tr_discovery_databank_uplinks = {
   modifier = {
      station_researchers_produces_mult = 0.10
   }
   possible = {
      has_tradition = tr_discovery_to_boldly_go
   }
   ai_weight = {
      factor = 5000
   }
}

### Science Division
tr_discovery_science_division = {
   modifier = {
      num_tech_alternatives_add = 1
      scientist_skill_levels = 2
   }

   tradition_swap = {
      name = tr_discovery_science_division_hive
      inherit_effects = no
      inherit_name = no
      inherit_icon = yes
      trigger = { is_hive_empire = yes }
      modifier = {
         num_tech_alternatives_add = 1
         scientist_skill_levels = 2
      }
      weight = { factor = 1 }
   }

   tradition_swap = {
      name = tr_doctrine_zen_pilgrimages
      inherit_effects = no
      inherit_name = no
      inherit_icon = no
      trigger = { spiritualist_country_traditions = yes }
      modifier = {
         science_ship_survey_speed = 0.35
         shipclass_science_ship_disengage_mult = 0.5
      }
      weight = { factor = 1 }
   }

   tradition_swap = {
      name = tr_discovery_science_division_machine
      inherit_effects = no
      inherit_name = no
      inherit_icon = yes
      trigger = { is_machine_empire = yes }
      modifier = {
         num_tech_alternatives_add = 1
         scientist_skill_levels = 2
      }
      weight = { factor = 1 }
   }

   tradition_swap = {
      name = tr_imperial_research_projects
      inherit_effects = no
      inherit_name = no
      inherit_icon = yes
      trigger = { has_country_flag = galactic_empire }
      modifier = {
         num_tech_alternatives_add = 1
         scientist_skill_levels = 2
      }
      weight = { factor = 1 }
   }

   tradition_swap = {
      name = tr_council_exploration
      inherit_effects = no
      inherit_name = no
      inherit_icon = yes
      trigger = { council_country_traditions = yes }
      modifier = {
         science_ship_survey_speed = 0.35
         shipclass_science_ship_disengage_mult = 0.5
      }
      weight = { factor = 1 }
   }
   ai_weight = {
      factor = 1000
   }
}

### Polytechnic Education
tr_discovery_polytechnic_education = {
   modifier = {
      species_leader_exp_gain = 0.25
      leader_skill_levels = 1
   }
   possible = {
      has_tradition = tr_discovery_science_division
   }

   tradition_swap = {
      name = tr_discovery_polytechnic_education_hive
      inherit_effects = no
      inherit_name = no
      inherit_icon = yes
      trigger = { is_hive_empire = yes }
      modifier = {
         species_leader_exp_gain = 0.25
         leader_skill_levels = 1
      }
      weight = { factor = 1 }
   }

   tradition_swap = {
      name = tr_doctrine_spiritual_centers
      inherit_effects = no
      inherit_name = no
      inherit_icon = no
      trigger = { spiritualist_country_traditions = yes }
      weight = { factor = 1 }
   }

   tradition_swap = {
      name = tr_discovery_polytechnic_education_machine
      inherit_effects = no
      inherit_name = no
      inherit_icon = yes
      trigger = { is_machine_empire = yes }
      modifier = {
         species_leader_exp_gain = 0.25
         leader_skill_levels = 1
      }
      weight = { factor = 1 }
   }

   tradition_swap = {
      name = tr_imperial_research_academy
      inherit_effects = no
      inherit_name = no
      inherit_icon = no
      trigger = { has_country_flag = galactic_empire }
      modifier = {
         species_leader_exp_gain = 0.25
         leader_skill_levels = 1
      }
      weight = { factor = 1 }
   }

   tradition_swap = {
      name = tr_council_centers
      inherit_effects = no
      inherit_name = no
      inherit_icon = no
      trigger = { council_country_traditions = yes }
      weight = { factor = 1 }
   }
   ai_weight = {
      factor = 5000
   }
}

### Faith in Science
tr_discovery_faith_in_science = {
   modifier = {
      planet_researchers_upkeep_mult = -0.20
   }
   possible = {
      has_tradition = tr_discovery_polytechnic_education
   }

   tradition_swap = {
      name = tr_discovery_faith_in_science_hive
      inherit_effects = no
      inherit_name = no
      inherit_icon = yes
      trigger = { is_hive_empire = yes }
      modifier = {
         planet_researchers_upkeep_mult = -0.20
      }
      weight = { factor = 1 }
   }

   tradition_swap = {
      name = tr_doctrine_unity_mind_body
      inherit_effects = no
      inherit_name = no
      inherit_icon = no
      trigger = { spiritualist_country_traditions = yes }
      modifier = {
         pop_happiness = 0.05
         species_leader_exp_gain = 0.15
      }
      weight = { factor = 1 }
   }

   tradition_swap = {
      name = tr_discovery_faith_in_science_machine
      inherit_effects = no
      inherit_name = no
      inherit_icon = yes
      trigger = { is_machine_empire = yes }
      modifier = {
         planet_researchers_upkeep_mult = -0.20
      }
      weight = { factor = 1 }
   }

   tradition_swap = {
      name = tr_imperial_research_conviction
      inherit_effects = no
      inherit_name = no
      inherit_icon = no
      trigger = { has_country_flag = galactic_empire }
      modifier = {
         planet_researchers_upkeep_mult = -0.20
      }
      weight = { factor = 1 }
   }

   tradition_swap = {
      name = tr_council_wisdom
      inherit_effects = no
      inherit_name = no
      inherit_icon = no
      trigger = { council_country_traditions = yes }
      modifier = {
         pop_happiness = 0.05
         species_leader_exp_gain = 0.15
      }
      weight = { factor = 1 }
   }
   ai_weight = {
      factor = 5000
   }
}

### 
tr_discovery_finish = {
   modifier = {
      ascension_perks_add = 1
      all_technology_research_speed = 0.05
   }

   tradition_swap = {
      name = tr_discovery_finish_hive
      inherit_effects = no
      inherit_name = yes
      inherit_icon = yes
      trigger = { is_hive_empire = yes }
      modifier = {
         ascension_perks_add = 1
         all_technology_research_speed = 0.05
      }
      weight = { factor = 1 }
   }

   tradition_swap = {
      name = tr_doctrine_finish
      inherit_effects = no
      inherit_name = yes
      inherit_icon = yes
      trigger = { spiritualist_country_traditions = yes }
      modifier = {
         ascension_perks_add = 1
         pop_government_ethic_attraction = 0.3
      }
      weight = { factor = 1 }
   }

   tradition_swap = {
      name = tr_discovery_finish_machine
      inherit_effects = no
      inherit_name = yes
      inherit_icon = yes
      trigger = { is_machine_empire = yes }
      modifier = {
         ascension_perks_add = 1
         all_technology_research_speed = 0.05
      }
      weight = { factor = 1 }
   }

   tradition_swap = {
      name = tr_imperial_research_finish
      inherit_effects = no
      inherit_name = yes
      inherit_icon = yes
      trigger = { has_country_flag = galactic_empire }
      modifier = {
         ascension_perks_add = 1
         all_technology_research_speed = 0.05
      }
      weight = { factor = 1 }
   }

   tradition_swap = {
      name = tr_council_finish
      inherit_effects = no
      inherit_name = yes
      inherit_icon = yes
      trigger = { council_country_traditions = yes }
      modifier = {
         ascension_perks_add = 1
         pop_government_ethic_attraction = 0.3
      }
      weight = { factor = 1 }
   }
}

### 
tr_domination_adopt = {

   ### Unlocks vassals

   modifier = {
      deposit_blockers_cost_mult = -0.333
   }

   tradition_swap = {
      name = tr_preservation_adopt
      inherit_effects = no
      inherit_name = yes
      inherit_icon = yes
      trigger = { xenophile_country_traditions = yes }
      modifier = {
         planet_buildings_cost_mult = -0.15
      }
      weight = { factor = 1 }
   }

   tradition_swap = {
      name = tr_moff_council_adopt
      inherit_effects = no
      inherit_name = yes
      inherit_icon = yes
      trigger = { has_country_flag = galactic_empire }
      modifier = {
         deposit_blockers_cost_mult = -0.333
      }
      weight = { factor = 1 }
   }
   ai_weight = {
      factor = 10
      modifier = {
         factor = 2
         has_ethic = ethic_xenophobe
      }
      modifier = {
         factor = 3
         has_ethic = ethic_fanatic_xenophobe
      }
   }
}

### Colonial Viceroys
tr_domination_colonial_viceroys = {
   modifier = {
      governor_skill_levels = 2
   }

   tradition_swap = {
      name = tr_domination_colonial_viceroys_hive
      inherit_effects = no
      inherit_name = no
      inherit_icon = yes
      trigger = { is_hive_empire = yes }
      modifier = {
         governor_skill_levels = 2
      }
      weight = { factor = 1 }
   }

   tradition_swap = {
      name = tr_preservation_colonial_leadership
      inherit_effects = no
      inherit_name = no
      inherit_icon = no
      trigger = { xenophile_country_traditions = yes }
      modifier = {
         governor_skill_levels = 2
      }
      weight = { factor = 1 }
   }

   tradition_swap = {
      name = tr_domination_colonial_viceroys_machine
      inherit_effects = no
      inherit_name = no
      inherit_icon = yes
      trigger = { is_machine_empire = yes }
      modifier = {
         governor_skill_levels = 2
      }
      weight = { factor = 1 }
   }

   tradition_swap = {
      name = tr_moff_council_sector
      inherit_effects = no
      inherit_name = no
      inherit_icon = no
      trigger = { has_country_flag = galactic_empire }
      modifier = {
         governor_skill_levels = 2
      }
      weight = { factor = 1 }
   }
   ai_weight = {
      factor = 1000
   }
}

### Imperious Architecture
tr_domination_imperious_architecture = {

   ### 1 Housing from Capitals and House Buildings


   tradition_swap = {
      name = tr_domination_synaptic_extensions
      inherit_effects = no
      inherit_name = no
      inherit_icon = yes
      trigger = { is_hive_empire = yes }
      weight = { factor = 1 }
   }

   tradition_swap = {
      name = tr_preservation_cultural_melting_pot
      inherit_effects = no
      inherit_name = no
      inherit_icon = no
      trigger = { xenophile_country_traditions = yes }
      modifier = {
         pop_housing_usage_mult = -0.1
      }
      weight = { factor = 1 }
   }

   tradition_swap = {
      name = tr_domination_modular_depot
      inherit_effects = no
      inherit_name = no
      inherit_icon = yes
      trigger = { is_machine_empire = yes }
      weight = { factor = 1 }
   }

   tradition_swap = {
      name = tr_moff_council_grand
      inherit_effects = no
      inherit_name = no
      inherit_icon = no
      trigger = { has_country_flag = galactic_empire }
      modifier = {
         ruler_skill_levels = 2
      }
      weight = { factor = 1 }
   }
   ai_weight = {
      factor = 1000
   }
}

### Privy Council
tr_domination_grand_council = {
   modifier = {
      ruler_skill_levels = 2
   }
   possible = {
      has_tradition = tr_domination_colonial_viceroys
      has_tradition = tr_domination_imperious_architecture
   }

   tradition_swap = {
      name = tr_domination_synaptic_network
      inherit_effects = no
      inherit_name = no
      inherit_icon = yes
      trigger = { is_hive_empire = yes }
      modifier = {
         ruler_skill_levels = 2
      }
      weight = { factor = 1 }
   }

   tradition_swap = {
      name = tr_preservation_taming_land
      inherit_effects = no
      inherit_name = no
      inherit_icon = no
      trigger = { xenophile_country_traditions = yes }
      modifier = {
         country_food_produces_mult = 0.05
         deposit_blockers_cost_mult = -0.25
      }
      weight = { factor = 1 }
   }

   tradition_swap = {
      name = tr_domination_multi_thread
      inherit_effects = no
      inherit_name = no
      inherit_icon = yes
      trigger = { is_machine_empire = yes }
      modifier = {
         ruler_skill_levels = 2
      }
      weight = { factor = 1 }
   }

   tradition_swap = {
      name = tr_moff_council_imperial_assimilation
      inherit_effects = no
      inherit_name = no
      inherit_icon = no
      trigger = { has_country_flag = galactic_empire }
      modifier = {
         country_subject_trust_cap_add = 50
      }
      weight = { factor = 1 }
   }
   ai_weight = {
      factor = 5000
   }
}

### Judgment Corps
tr_domination_judgment_corps = {

   ### Enforcers reduce crime by +20%


   tradition_swap = {
      name = tr_domination_divergence_supression
      inherit_effects = no
      inherit_name = no
      inherit_icon = yes
      trigger = { is_hive_empire = yes }
      modifier = {
         planet_crime_no_happiness_add = -10
      }
      weight = { factor = 1 }
   }

   tradition_swap = {
      name = tr_preservation_fight_last_man
      inherit_effects = no
      inherit_name = no
      inherit_icon = no
      trigger = { xenophile_country_traditions = yes }
      modifier = {
         army_defense_health_mult = 0.10
         shipclass_starbase_hull_mult = 0.10
      }
      weight = { factor = 1 }
   }

   tradition_swap = {
      name = tr_domination_deviancy_protocols
      inherit_effects = no
      inherit_name = no
      inherit_icon = yes
      trigger = { is_machine_empire = yes }
      modifier = {
         planet_crime_no_happiness_add = -10
      }
      weight = { factor = 1 }
   }

   tradition_swap = {
      name = tr_moff_council_imperialization
      inherit_effects = no
      inherit_name = no
      inherit_icon = no
      trigger = { has_country_flag = galactic_empire }
      modifier = {
         country_vassal_naval_capacity_contribution_mult = 0.33
      }
      weight = { factor = 1 }
   }
   ai_weight = {
      factor = 5000
   }
}

### Workplace Motivators
tr_domination_workplace_motivators = {
   modifier = {
      planet_jobs_worker_produces_mult = 0.05
      planet_jobs_slave_produces_mult = 0.10
   }
   possible = {
      has_tradition = tr_domination_judgment_corps
   }

   tradition_swap = {
      name = tr_domination_drone_network
      inherit_effects = no
      inherit_name = no
      inherit_icon = no
      trigger = { is_gestalt = yes }
      modifier = {
         planet_jobs_simple_drone_produces_mult = 0.05
      }
      weight = { factor = 1 }
   }

   tradition_swap = {
      name = tr_preservation_defenders_weak
      inherit_effects = no
      inherit_name = no
      inherit_icon = no
      trigger = { xenophile_country_traditions = yes }
      modifier = {
         country_naval_cap_mult = 0.05
         ruler_skill_levels = 1
      }
      weight = { factor = 1 }
   }

   tradition_swap = {
      name = tr_moff_council_bleed_them_dry
      inherit_effects = no
      inherit_name = no
      inherit_icon = no
      trigger = { has_country_flag = galactic_empire }
      modifier = {
         subject_tribute_mult = 0.25
      }
      weight = { factor = 1 }
   }
   ai_weight = {
      factor = 5000
   }
}

### 
tr_domination_finish = {
   modifier = {
      ascension_perks_add = 1
      country_subject_technology_sharing_mult = 0.30
   }

   tradition_swap = {
      name = tr_preservation_finish
      inherit_effects = no
      inherit_name = yes
      inherit_icon = yes
      trigger = { xenophile_country_traditions = yes }
      modifier = {
         ascension_perks_add = 1
         country_unity_produces_mult = 0.1
      }
      weight = { factor = 1 }
   }

   tradition_swap = {
      name = tr_moff_council_finish
      inherit_effects = no
      inherit_name = yes
      inherit_icon = yes
      trigger = { has_country_flag = galactic_empire }
      modifier = {
         ascension_perks_add = 1
         country_subject_technology_sharing_mult = 0.30
      }
      weight = { factor = 1 }
   }
}

### 
tr_expansion_adopt = {
   modifier = {
      planet_colony_development_speed_mult = 0.25
   }

   tradition_swap = {
      name = tr_expansion_adopt_hive
      inherit_effects = no
      inherit_name = yes
      inherit_icon = yes
      trigger = { is_hive_empire = yes }
      modifier = {
         planet_colony_development_speed_mult = 0.25
      }
      weight = { factor = 1 }
   }

   tradition_swap = {
      name = tr_roving_adopt
      inherit_effects = no
      inherit_name = yes
      inherit_icon = yes
      trigger = { is_habitat_empire_tradition = yes }
      modifier = {
         megastructure_build_speed_mult = 0.5
      }
      weight = { factor = 1 }
   }

   tradition_swap = {
      name = tr_expansion_adopt_machine
      inherit_effects = no
      inherit_name = yes
      inherit_icon = yes
      trigger = { is_machine_empire = yes }
      modifier = {
         planet_colony_development_speed_mult = 0.25
      }
      weight = { factor = 1 }
   }

   tradition_swap = {
      name = tr_mobility_adopt
      inherit_effects = no
      inherit_name = yes
      inherit_icon = yes
      trigger = { OR = {
                             has_country_flag = senate_loyalists
                             has_country_flag = rebel_alliance
                     } }
      modifier = {
         planet_colony_development_speed_mult = 0.25
      }
      weight = { factor = 1 }
   }
   ai_weight = {
      factor = 6000
      modifier = {
         factor = 2
         has_ethic = ethic_egalitarian
      }
      modifier = {
         factor = 3
         has_ethic = ethic_fanatic_egalitarian
      }
   }
}

### Colonization Fever
tr_expansion_colonization_fever = {
   modifier = {
      ship_colonizer_cost_mult = -0.5
   }

   tradition_swap = {
      name = tr_expansion_colonization_fever_hive
      inherit_effects = no
      inherit_name = no
      inherit_icon = yes
      trigger = { is_hive_empire = yes }
      modifier = {
         ship_colonizer_cost_mult = -0.5
      }
      weight = { factor = 1 }
   }

   tradition_swap = {
      name = tr_roving_force_projection
      inherit_effects = no
      inherit_name = no
      inherit_icon = no
      trigger = { is_habitat_empire_tradition = yes }
      modifier = {
         country_starbase_capacity_add = 3
      }
      weight = { factor = 1 }
   }

   tradition_swap = {
      name = tr_expansion_colonization_fever_machine
      inherit_effects = no
      inherit_name = no
      inherit_icon = yes
      trigger = { is_machine_empire = yes }
      modifier = {
         ship_colonizer_cost_mult = -0.25
         country_starbase_capacity_add = 1
      }
      weight = { factor = 1 }
   }

   tradition_swap = {
      name = tr_mobility_secret_hq
      inherit_effects = no
      inherit_name = no
      inherit_icon = no
      trigger = { OR = {
                             has_country_flag = senate_loyalists
                             has_country_flag = rebel_alliance
                     } }
      modifier = {
         ship_colonizer_cost_mult = -0.25
         country_starbase_capacity_add = 2
      }
      weight = { factor = 1 }
   }
   ai_weight = {
      factor = 6000
   }
}

### A New Life
tr_expansion_a_new_life = {
   modifier = {
      pop_growth_speed = 0.05
   }
   possible = {
      has_tradition = tr_expansion_colonization_fever
   }

   tradition_swap = {
      name = tr_expansion_a_new_life_hive
      inherit_effects = no
      inherit_name = no
      inherit_icon = yes
      trigger = { is_hive_empire = yes }
      modifier = {
         pop_growth_speed = 0.10
      }
      weight = { factor = 1 }
   }

   tradition_swap = {
      name = tr_roving_space_wayfarers
      inherit_effects = no
      inherit_name = no
      inherit_icon = no
      trigger = { is_habitat_empire_tradition = yes }
      modifier = {
         planet_max_districts_add = 1
      }
      weight = { factor = 1 }
   }

   tradition_swap = {
      name = tr_expansion_a_new_life_machine
      inherit_effects = no
      inherit_name = no
      inherit_icon = yes
      trigger = { is_machine_empire = yes }
      modifier = {
         planet_pop_assembly_mult = 0.05
      }
      weight = { factor = 1 }
   }

   tradition_swap = {
      name = tr_mobility_naturally_adaptable
      inherit_effects = no
      inherit_name = no
      inherit_icon = no
      trigger = { OR = {
                             has_country_flag = senate_loyalists
                             has_country_flag = rebel_alliance
                     } }
      modifier = {
         pop_environment_tolerance = 0.05
         planet_max_districts_add = 1
      }
      weight = { factor = 1 }
   }
   ai_weight = {
      factor = 6000
   }
}

### Courier Network
tr_expansion_courier_network = {
   modifier = {
      country_admin_cap_add = 30
   }
   possible = {
      has_tradition = tr_expansion_reach_for_the_stars
   }

   tradition_swap = {
      name = tr_expansion_courier_network_hive
      inherit_effects = no
      inherit_name = no
      inherit_icon = yes
      trigger = { is_hive_empire = yes }
      modifier = {
         country_admin_cap_add = 30
      }
      weight = { factor = 1 }
   }

   tradition_swap = {
      name = tr_roving_affinity_dark
      inherit_effects = no
      inherit_name = no
      inherit_icon = no
      trigger = { is_habitat_empire_tradition = yes }
      modifier = {
         megastructure_build_speed_mult = 0.5
         country_admin_cap_add = 10
      }
      weight = { factor = 1 }
   }

   tradition_swap = {
      name = tr_expansion_courier_network_machine
      inherit_effects = no
      inherit_name = no
      inherit_icon = yes
      trigger = { is_machine_empire = yes }
      modifier = {
         country_admin_cap_add = 30
      }
      weight = { factor = 1 }
   }

   tradition_swap = {
      name = tr_mobility_rebel_intelligence
      inherit_effects = no
      inherit_name = no
      inherit_icon = no
      trigger = { OR = {
                             has_country_flag = senate_loyalists
                             has_country_flag = rebel_alliance
                     } }
      modifier = {
         ship_sensor_range_add = 1
         country_admin_cap_add = 20
      }
      weight = { factor = 1 }
   }
   ai_weight = {
      factor = 6000
   }
}

### Reach for the Stars
tr_expansion_reach_for_the_stars = {
   modifier = {
      country_starbase_influence_cost_mult = -0.10
      country_starbase_capacity_add = 1
   }

   tradition_swap = {
      name = tr_expansion_reach_for_the_stars_hive
      inherit_effects = no
      inherit_name = no
      inherit_icon = yes
      trigger = { is_hive_empire = yes }
      modifier = {
         country_starbase_influence_cost_mult = -0.10
         country_starbase_capacity_add = 1
      }
      weight = { factor = 1 }
   }

   tradition_swap = {
      name = tr_roving_salvation
      inherit_effects = no
      inherit_name = no
      inherit_icon = yes
      trigger = { is_habitat_empire_tradition = yes }
      modifier = {
         country_starbase_influence_cost_mult = -0.15
      }
      weight = { factor = 1 }
   }

   tradition_swap = {
      name = tr_expansion_reach_for_the_stars_machine
      inherit_effects = no
      inherit_name = no
      inherit_icon = yes
      trigger = { is_machine_empire = yes }
      modifier = {
         country_starbase_influence_cost_mult = -0.10
         country_starbase_capacity_add = 1
      }
      weight = { factor = 1 }
   }

   tradition_swap = {
      name = tr_mobility_fleet_based_hq
      inherit_effects = no
      inherit_name = no
      inherit_icon = no
      trigger = { OR = {
                             has_country_flag = senate_loyalists
                             has_country_flag = rebel_alliance
                     } }
      modifier = {
         country_starbase_influence_cost_mult = -0.10
         country_command_limit_add = 20
      }
      weight = { factor = 1 }
   }
   ai_weight = {
      factor = 6000
   }
}

### Galactic Ambition
tr_expansion_galactic_ambition = {
   modifier = {
      starbases_upkeep_mult = -0.2
   }
   possible = {
      has_tradition = tr_expansion_reach_for_the_stars
   }

   tradition_swap = {
      name = tr_expansion_galactic_ambition_hive
      inherit_effects = no
      inherit_name = no
      inherit_icon = yes
      trigger = { is_hive_empire = yes }
      modifier = {
         starbases_upkeep_mult = -0.2
      }
      weight = { factor = 1 }
   }

   tradition_swap = {
      name = tr_expansion_galactic_ambition_machine
      inherit_effects = no
      inherit_name = no
      inherit_icon = yes
      trigger = { is_machine_empire = yes }
      modifier = {
         starbases_upkeep_mult = -0.2
      }
      weight = { factor = 1 }
   }
   ai_weight = {
      factor = 6000
   }
}

### 
tr_expansion_finish = {
   modifier = {
      ascension_perks_add = 1
      empire_size_penalty_mult = -0.05
   }

   tradition_swap = {
      name = tr_roving_finish
      inherit_effects = no
      inherit_name = yes
      inherit_icon = yes
      trigger = { is_habitat_empire_tradition = yes }
      modifier = {
         ascension_perks_add = 1
         planet_non_artificial_max_districts_add = 1
      }
      weight = { factor = 1 }
   }
}

### 
tr_harmony_adopt = {
   modifier = {
      planet_pops_organics_food_upkeep_mult = -0.10
   }

   tradition_swap = {
      name = tr_synchronicity_hive_adopt
      inherit_effects = no
      inherit_name = yes
      inherit_icon = yes
      trigger = { is_hive_empire = yes }
      modifier = {
         planet_pops_organics_food_upkeep_mult = -0.10
      }
      weight = { factor = 1 }
   }

   tradition_swap = {
      name = tr_innovation_adopt
      inherit_effects = no
      inherit_name = yes
      inherit_icon = yes
      trigger = { materialist_country_traditions = yes }
      modifier = {
         planet_pops_robotics_upkeep_mult = -0.15
      }
      weight = { factor = 1 }
   }

   tradition_swap = {
      name = tr_synchronicity_machine_adopt
      inherit_effects = no
      inherit_name = yes
      inherit_icon = yes
      trigger = { is_machine_empire = yes }
      modifier = {
         planet_pops_robotics_upkeep_mult = -0.10
      }
      weight = { factor = 1 }
   }

   tradition_swap = {
      name = tr_glory_adopt
      inherit_effects = no
      inherit_name = yes
      inherit_icon = yes
      trigger = { has_glory_traditions = yes }
      modifier = {
         planet_pops_consumer_goods_upkeep_mult = -0.10
      }
      weight = { factor = 1 }
   }
   ai_weight = {
      factor = 10
   }
}

### The Greater Good
tr_harmony_the_greater_good = {
   modifier = {
      pop_government_ethic_attraction = 0.25
   }

   tradition_swap = {
      name = tr_synchronicity_integrated_preservation
      inherit_effects = no
      inherit_name = no
      inherit_icon = yes
      trigger = { is_gestalt = yes }
      weight = { factor = 1 }
   }

   tradition_swap = {
      name = tr_innovation_pragmatic_mindset
      inherit_effects = no
      inherit_name = no
      inherit_icon = yes
      trigger = { materialist_country_traditions = yes }
      modifier = {
         planet_jobs_energy_produces_mult = 0.05
      }
      weight = { factor = 1 }
   }

   tradition_swap = {
      name = tr_glory_path_forward
      inherit_effects = no
      inherit_name = no
      inherit_icon = no
      trigger = { has_glory_traditions = yes }
      modifier = {
         pop_government_ethic_attraction = 0.25
      }
      weight = { factor = 1 }
   }
   ai_weight = {
      factor = 1000
   }
}

### Kinship
tr_harmony_kinship = {
   modifier = {
      pop_demotion_time_mult = -0.5
   }

   tradition_swap = {
      name = tr_synchronicity_kinship_gestalt
      inherit_effects = no
      inherit_name = no
      inherit_icon = yes
      trigger = { is_gestalt = yes }
      modifier = {
         leaders_upkeep_mult = -0.20
      }
      weight = { factor = 1 }
   }

   tradition_swap = {
      name = tr_innovation_assembly_lines
      inherit_effects = no
      inherit_name = no
      inherit_icon = no
      trigger = { materialist_country_traditions = yes }
      modifier = {
         planet_pop_assembly_mult = 0.15
      }
      weight = { factor = 1 }
   }

   tradition_swap = {
      name = tr_glory_citizenship
      inherit_effects = no
      inherit_name = no
      inherit_icon = no
      trigger = { has_glory_traditions = yes }
      modifier = {
         pop_demotion_time_mult = -0.5
      }
      weight = { factor = 1 }
   }
   ai_weight = {
      factor = 1000
   }
}

### Utopian Dream
tr_harmony_utopian_dream = {
   modifier = {
      pop_amenities_usage_mult = -0.1
   }
   possible = {
      has_tradition = tr_harmony_the_greater_good
   }

   tradition_swap = {
      name = tr_synchronicity_collective_reasoning
      inherit_effects = no
      inherit_name = no
      inherit_icon = yes
      trigger = { is_gestalt = yes }
      modifier = {
         pop_amenities_usage_no_happiness_mult = -0.1
      }
      weight = { factor = 1 }
   }

   tradition_swap = {
      name = tr_innovation_droid_labor
      inherit_effects = no
      inherit_name = no
      inherit_icon = no
      trigger = { materialist_country_traditions = yes }
      modifier = {
         planet_jobs_robotic_produces_mult = 0.10
      }
      weight = { factor = 1 }
   }

   tradition_swap = {
      name = tr_glory_frugal
      inherit_effects = no
      inherit_name = no
      inherit_icon = yes
      trigger = { has_glory_traditions = yes }
      modifier = {
         pop_amenities_usage_mult = -0.1
      }
      weight = { factor = 1 }
   }
   ai_weight = {
      factor = 1000
   }
}

### Bulwark of Harmony
tr_harmony_bulwark_of_harmony = {
   modifier = {
      starbase_defensive_war_ship_build_speed_mult = 0.33
      ship_home_territory_fire_rate_mult = 0.10
   }
   possible = {
      has_tradition = tr_harmony_mind_and_body
      has_tradition = tr_harmony_kinship
   }

   tradition_swap = {
      name = tr_innovation_droid_ex_machina
      inherit_effects = no
      inherit_name = no
      inherit_icon = no
      trigger = { materialist_country_traditions = yes }
      modifier = {
         num_tech_alternatives_add = 1
      }
      weight = { factor = 1 }
   }

   tradition_swap = {
      name = tr_glory_new_empire
      inherit_effects = no
      inherit_name = no
      inherit_icon = no
      trigger = { has_glory_traditions = yes }
      modifier = {
         empire_size_penalty_mult = -0.05
      }
      weight = { factor = 1 }
   }
   ai_weight = {
      factor = 5000
   }
}

### Mind and Body
tr_harmony_mind_and_body = {
   modifier = {
      leader_age = 20
   }

   tradition_swap = {
      name = tr_synchronicity_cloned_organs
      inherit_effects = no
      inherit_name = no
      inherit_icon = yes
      trigger = { is_hive_empire = yes }
      modifier = {
         leader_age = 20
      }
      weight = { factor = 1 }
   }

   tradition_swap = {
      name = tr_innovation_manufactured_society
      inherit_effects = no
      inherit_name = no
      inherit_icon = no
      trigger = { materialist_country_traditions = yes }
      modifier = {
         modify_species_cost_mult = -0.25
      }
      weight = { factor = 1 }
   }

   tradition_swap = {
      name = tr_synchronicity_self_preservation
      inherit_effects = no
      inherit_name = no
      inherit_icon = no
      trigger = { is_machine_empire = yes }
      weight = { factor = 1 }
   }

   tradition_swap = {
      name = tr_glory_administrative
      inherit_effects = no
      inherit_name = no
      inherit_icon = no
      trigger = { has_glory_traditions = yes }
      modifier = {
         country_admin_cap_add = 30
      }
      weight = { factor = 1 }
   }
   ai_weight = {
      factor = 5000
   }
}

### 
tr_harmony_finish = {
   modifier = {
      ascension_perks_add = 1
      planet_stability_add = 10
   }

   tradition_swap = {
      name = tr_synchronicity_finish
      inherit_effects = no
      inherit_name = yes
      inherit_icon = yes
      trigger = { is_gestalt = yes }
      modifier = {
         ascension_perks_add = 1
         planet_stability_add = 10
      }
      weight = { factor = 1 }
   }

   tradition_swap = {
      name = tr_innovation_finish
      inherit_effects = no
      inherit_name = yes
      inherit_icon = yes
      trigger = { materialist_country_traditions = yes }
      modifier = {
         ascension_perks_add = 1
         planet_stability_add = 10
      }
      weight = { factor = 1 }
   }

   tradition_swap = {
      name = tr_glory_finish
      inherit_effects = no
      inherit_name = yes
      inherit_icon = yes
      trigger = { has_glory_traditions = yes }
      modifier = {
         ascension_perks_add = 1
         planet_stability_add = 10
      }
      weight = { factor = 1 }
   }
}

### 
tr_prosperity_adopt = {
   modifier = {
      station_gatherers_produces_mult = 0.10
   }

   tradition_swap = {
      name = tr_prosperity_adopt_hive
      inherit_effects = no
      inherit_name = yes
      inherit_icon = yes
      trigger = { is_hive_empire = yes }
      modifier = {
         station_gatherers_produces_mult = 0.10
      }
      weight = { factor = 1 }
   }

   tradition_swap = {
      name = tr_strength_adopt
      inherit_effects = no
      inherit_name = yes
      inherit_icon = yes
      trigger = { militarist_country_traditions = yes }
      modifier = {
         army_morale = 0.10
      }
      weight = { factor = 1 }
   }

   tradition_swap = {
      name = tr_prosperity_adopt_machine
      inherit_effects = no
      inherit_name = yes
      inherit_icon = yes
      trigger = { is_machine_empire = yes }
      modifier = {
         station_gatherers_produces_mult = 0.10
      }
      weight = { factor = 1 }
   }

   tradition_swap = {
      name = tr_slave_trade_adopt
      inherit_effects = no
      inherit_name = yes
      inherit_icon = yes
      trigger = { slavery_country_traditions = yes }
      modifier = {
         planet_jobs_slave_produces_mult = 0.1
         planet_buildings_cost_mult = -0.10
      }
      weight = { factor = 1 }
   }

   tradition_swap = {
      name = tr_separatist_adopt
      inherit_effects = no
      inherit_name = yes
      inherit_icon = yes
      trigger = { OR = {
                             has_country_flag = banking_clan
                             has_country_flag = commerce_guild
                             has_country_flag = confederate_remnant
                             has_country_flag = trade_federation
                             has_country_flag = corporate_alliance
                             has_country_flag = tion_hegemony
                     } }
      modifier = {
         starbase_shipyard_build_cost_mult = -0.10
         planet_pop_assemblers_upkeep_mult = -0.50
      }
      weight = { factor = 1 }
   }

   tradition_swap = {
      name = tr_mon_cal_construction_adopt
      inherit_effects = no
      inherit_name = yes
      inherit_icon = yes
      trigger = { OR = {
                             has_country_flag = senate_loyalists
                             has_country_flag = rebel_alliance
                             has_country_flag = mon_cala_monarchy
                     } }
      modifier = {
         starbase_shipyard_build_cost_mult = -0.10
         planet_buildings_cost_mult = -0.10
      }
      weight = { factor = 1 }
   }

   tradition_swap = {
      name = tr_imperial_designs_adopt
      inherit_effects = no
      inherit_name = yes
      inherit_icon = yes
      trigger = { has_country_flag = galactic_empire }
      modifier = {
         starbase_shipyard_build_cost_mult = -0.05
         planet_buildings_cost_mult = -0.15
      }
      weight = { factor = 1 }
   }

   tradition_swap = {
      name = tr_hapes_construction_adopt
      inherit_effects = no
      inherit_name = yes
      inherit_icon = yes
      trigger = { has_country_flag = hapes_consortium }
      modifier = {
         starbase_shipyard_build_cost_mult = -0.10
         planet_buildings_cost_mult = -0.15
      }
      weight = { factor = 1 }
   }

   tradition_swap = {
      name = tr_mando_construction_adopt
      inherit_effects = no
      inherit_name = yes
      inherit_icon = yes
      trigger = { has_country_flag = mandalorian_clans }
      modifier = {
         starbase_shipyard_build_cost_mult = -0.05
         planet_buildings_cost_mult = -0.15
      }
      weight = { factor = 1 }
   }
   ai_weight = {
      factor = 10
      modifier = {
         factor = 2
         has_ethic = ethic_materialist
      }
      modifier = {
         factor = 3
         has_ethic = ethic_fanatic_materialist
      }
   }
}

### Standard Construction Templates
tr_prosperity_sct = {
   modifier = {
      planet_structures_cost_mult = -0.10
      planet_building_build_speed_mult = 0.25
   }

   tradition_swap = {
      name = tr_strength_society
      inherit_effects = no
      inherit_name = no
      inherit_icon = no
      trigger = { militarist_country_traditions = yes }
      modifier = {
         pop_government_ethic_attraction = 0.15
         army_defense_damage_mult = 0.05
      }
      weight = { factor = 1 }
   }

   tradition_swap = {
      name = tr_prosperity_sct_machine
      inherit_effects = no
      inherit_name = no
      inherit_icon = yes
      trigger = { is_machine_empire = yes }
      modifier = {
         planet_structures_cost_mult = -0.10
         planet_building_build_speed_mult = 0.25
      }
      weight = { factor = 1 }
   }

   tradition_swap = {
      name = tr_slave_trade_laborers
      inherit_effects = no
      inherit_name = no
      inherit_icon = no
      trigger = { slavery_country_traditions = yes }
      modifier = {
         starbase_shipyard_build_speed_mult = 0.15
         planet_building_build_speed_mult = 0.15
      }
      weight = { factor = 1 }
   }

   tradition_swap = {
      name = tr_separatist_droid_integration
      inherit_effects = no
      inherit_name = no
      inherit_icon = no
      trigger = { OR = {
                             has_country_flag = banking_clan
                             has_country_flag = commerce_guild
                             has_country_flag = confederate_remnant
                             has_country_flag = trade_federation
                             has_country_flag = corporate_alliance
                             has_country_flag = tion_hegemony
                     } }
      modifier = {
         planet_pop_assembly_mult = 0.10
      }
   on_enabled = { give_technology = { message = no tech = tech_architecture_cis } }
      weight = { factor = 1 }
   }

   tradition_swap = {
      name = tr_mon_cal_construction_defenses
      inherit_effects = no
      inherit_name = no
      inherit_icon = no
      trigger = { OR = {
                             has_country_flag = senate_loyalists
                             has_country_flag = rebel_alliance
                             has_country_flag = mon_cala_monarchy
                     } }
      modifier = {
         starbase_shipyard_build_speed_mult = 0.15
         planet_building_build_speed_mult = 0.15
      }
   on_enabled = { give_technology = { message = no tech = tech_architecture_rebel } }
      weight = { factor = 1 }
   }

   tradition_swap = {
      name = tr_imperial_designs_firepower
      inherit_effects = no
      inherit_name = no
      inherit_icon = no
      trigger = { has_country_flag = galactic_empire }
      modifier = {
         starbase_shipyard_build_speed_mult = 0.15
         planet_building_build_speed_mult = 0.15
      }
   on_enabled = { give_technology = { message = no tech = tech_architecture_imperial } }
      weight = { factor = 1 }
   }

   tradition_swap = {
      name = tr_hapes_construction_numbers
      inherit_effects = no
      inherit_name = no
      inherit_icon = no
      trigger = { has_country_flag = hapes_consortium }
      modifier = {
         starbase_shipyard_build_speed_mult = 0.15
         planet_building_build_speed_mult = 0.15
      }
   on_enabled = { give_technology = { message = no tech = tech_architecture_hapan } }
      weight = { factor = 1 }
   }

   tradition_swap = {
      name = tr_mando_construction_mandal_motors
      inherit_effects = no
      inherit_name = no
      inherit_icon = no
      trigger = { has_country_flag = mandalorian_clans }
      modifier = {
         starbase_shipyard_build_speed_mult = 0.15
         planet_building_build_speed_mult = 0.15
      }
   on_enabled = { give_technology = { message = no tech = tech_architecture_mando } }
      weight = { factor = 1 }
   }
   ai_weight = {
      factor = 1000
   }
}

### Administrative Operations
tr_prosperity_administrative_operations = {
   modifier = {
      planet_buildings_upkeep_mult = -0.10
      planet_districts_upkeep_mult = -0.10
   }

   tradition_swap = {
      name = tr_prosperity_administrative_operations_hive
      inherit_effects = no
      inherit_name = no
      inherit_icon = yes
      trigger = { is_hive_empire = yes }
      modifier = {
         planet_buildings_upkeep_mult = -0.10
         planet_districts_upkeep_mult = -0.10
      }
      weight = { factor = 1 }
   }

   tradition_swap = {
      name = tr_strength_might
      inherit_effects = no
      inherit_name = no
      inherit_icon = no
      trigger = { militarist_country_traditions = yes }
      modifier = {
         army_damage_mult = 0.10
         ship_fire_rate_mult = 0.05
      }
      weight = { factor = 1 }
   }

   tradition_swap = {
      name = tr_prosperity_administrative_operations_machine
      inherit_effects = no
      inherit_name = no
      inherit_icon = yes
      trigger = { is_machine_empire = yes }
      modifier = {
         planet_buildings_upkeep_mult = -0.10
         planet_districts_upkeep_mult = -0.10
      }
      weight = { factor = 1 }
   }

   tradition_swap = {
      name = tr_slave_trade_indentured_servitude
      inherit_effects = no
      inherit_name = no
      inherit_icon = no
      trigger = { slavery_country_traditions = yes }
      modifier = {
         planet_buildings_upkeep_mult = -0.10
         starbases_upkeep_mult = -0.10
      }
      weight = { factor = 1 }
   }

   tradition_swap = {
      name = tr_separatist_cartelization
      inherit_effects = no
      inherit_name = no
      inherit_icon = yes
      trigger = { OR = {
                             has_country_flag = banking_clan
                             has_country_flag = commerce_guild
                             has_country_flag = confederate_remnant
                             has_country_flag = trade_federation
                             has_country_flag = corporate_alliance
                             has_country_flag = tion_hegemony
                     } }
      modifier = {
         planet_buildings_upkeep_mult = -0.05
         starbases_upkeep_mult = -0.15
      }
      weight = { factor = 1 }
   }

   tradition_swap = {
      name = tr_imperial_designs_admin
      inherit_effects = no
      inherit_name = no
      inherit_icon = no
      trigger = { has_country_flag = galactic_empire }
      modifier = {
         planet_buildings_upkeep_mult = -0.05
         planet_districts_upkeep_mult = -0.15
      }
      weight = { factor = 1 }
   }
   ai_weight = {
      factor = 5000
   }
}

### Public Works Division
tr_prosperity_public_works = {

   ### 1 Housing for City Districts

   possible = {
      has_tradition = tr_prosperity_sct
   }

   tradition_swap = {
      name = tr_prosperity_extended_hives
      inherit_effects = no
      inherit_name = no
      inherit_icon = yes
      trigger = { is_hive_empire = yes }
      weight = { factor = 1 }
   }

   tradition_swap = {
      name = tr_strength_army_logistics
      inherit_effects = no
      inherit_name = no
      inherit_icon = no
      trigger = { militarist_country_traditions = yes }
      modifier = {
         armies_upkeep_mult = -0.20
      }
      weight = { factor = 1 }
   }

   tradition_swap = {
      name = tr_prosperity_optimized_nexus
      inherit_effects = no
      inherit_name = no
      inherit_icon = yes
      trigger = { is_machine_empire = yes }
      weight = { factor = 1 }
   }

   tradition_swap = {
      name = tr_slave_trade_authoritarian_tendencies
      inherit_effects = no
      inherit_name = no
      inherit_icon = no
      trigger = { slavery_country_traditions = yes }
      modifier = {
         planet_stability_add = 10
      }
      weight = { factor = 1 }
   }

   tradition_swap = {
      name = tr_separatist_automated_crews
      inherit_effects = no
      inherit_name = no
      inherit_icon = no
      trigger = { OR = {
                             has_country_flag = banking_clan
                             has_country_flag = commerce_guild
                             has_country_flag = confederate_remnant
                             has_country_flag = trade_federation
                             has_country_flag = corporate_alliance
                             has_country_flag = tion_hegemony
                     } }
      modifier = {
         ships_upkeep_mult = -0.10
         planet_pops_robotics_upkeep_mult = -0.10
      }
      weight = { factor = 1 }
   }

   tradition_swap = {
      name = tr_mon_cal_construction_technicians
      inherit_effects = no
      inherit_name = no
      inherit_icon = no
      trigger = { OR = {
                             has_country_flag = senate_loyalists
                             has_country_flag = rebel_alliance
                             has_country_flag = mon_cala_monarchy
                     } }
      modifier = {
         ships_upkeep_mult = -0.05
         ship_shield_mult = 0.10
      }
      weight = { factor = 1 }
   }

   tradition_swap = {
      name = tr_imperial_designs_logistics
      inherit_effects = no
      inherit_name = no
      inherit_icon = no
      trigger = { has_country_flag = galactic_empire }
      modifier = {
         ships_upkeep_mult = -0.10
      }
      weight = { factor = 1 }
   }

   tradition_swap = {
      name = tr_hapes_construction_navy
      inherit_effects = no
      inherit_name = no
      inherit_icon = no
      trigger = { has_country_flag = hapes_consortium }
      modifier = {
         ships_upkeep_mult = -0.15
         ship_swp_battle_dragon_size_cost_mult = -0.10
      }
      weight = { factor = 1 }
   }

   tradition_swap = {
      name = tr_mando_construction_heavy_ordnance
      inherit_effects = no
      inherit_name = no
      inherit_icon = no
      trigger = { has_country_flag = mandalorian_clans }
      modifier = {
         weapon_type_explosive_weapon_damage_mult = 0.1
         ship_swp_mando_destroyer_size_cost_mult = -0.10
      }
      weight = { factor = 1 }
   }
   ai_weight = {
      factor = 5000
   }
}

### Interstellar Franchising
tr_prosperity_interstellar_franchising = {
   modifier = {
      trade_value_mult = 0.10
   }
   possible = {
      has_tradition = tr_prosperity_administrative_operations
   }

   tradition_swap = {
      name = tr_prosperity_efficiency_instincts
      inherit_effects = no
      inherit_name = no
      inherit_icon = no
      trigger = { is_hive_empire = yes }
      modifier = {
         country_energy_produces_mult = 0.10
      }
      weight = { factor = 1 }
   }

   tradition_swap = {
      name = tr_strength_numbers
      inherit_effects = no
      inherit_name = no
      inherit_icon = no
      trigger = { militarist_country_traditions = yes }
      modifier = {
         ships_upkeep_mult = -0.10
      }
      weight = { factor = 1 }
   }

   tradition_swap = {
      name = tr_prosperity_efficiency_algorithms
      inherit_effects = no
      inherit_name = no
      inherit_icon = no
      trigger = { is_machine_empire = yes }
      modifier = {
         country_energy_produces_mult = 0.10
      }
      weight = { factor = 1 }
   }

   tradition_swap = {
      name = tr_slave_trade_freedom_oppress
      inherit_effects = no
      inherit_name = no
      inherit_icon = no
      trigger = { slavery_country_traditions = yes }
      modifier = {
         pop_government_ethic_attraction = 0.20
         pop_category_slave_upkeep_mult = -0.15
      }
      weight = { factor = 1 }
   }

   tradition_swap = {
      name = tr_separatist_conglomeration
      inherit_effects = no
      inherit_name = no
      inherit_icon = no
      trigger = { OR = {
                             has_country_flag = banking_clan
                             has_country_flag = commerce_guild
                             has_country_flag = confederate_remnant
                             has_country_flag = trade_federation
                             has_country_flag = corporate_alliance
                             has_country_flag = tion_hegemony
                     } }
      modifier = {
         trade_value_mult = 0.10
         country_energy_produces_mult = 0.05
      }
      weight = { factor = 1 }
   }

   tradition_swap = {
      name = tr_mon_cal_construction_scraps
      inherit_effects = no
      inherit_name = no
      inherit_icon = no
      trigger = { OR = {
                             has_country_flag = senate_loyalists
                             has_country_flag = rebel_alliance
                             has_country_flag = mon_cala_monarchy
                     } }
      modifier = {
         country_energy_produces_mult = 0.05
         country_alloys_produces_mult = 0.05
      }
      weight = { factor = 1 }
   }

   tradition_swap = {
      name = tr_imperial_designs_nationalization
      inherit_effects = no
      inherit_name = no
      inherit_icon = yes
      trigger = { has_country_flag = galactic_empire }
      modifier = {
         trade_value_mult = 0.05
         country_energy_produces_mult = 0.05
      }
      weight = { factor = 1 }
   }
   ai_weight = {
      factor = 5000
   }
}

### The Pursuit of Profit
tr_prosperity_pursuit_of_profit = {

   ### tr_prosperity_creative_collectives

   modifier = {
      planet_jobs_specialist_produces_mult = 0.05
   }
   possible = {
      has_tradition = tr_prosperity_administrative_operations
   }

   tradition_swap = {
      name = tr_prosperity_hive_neural_signal_boosters
      inherit_effects = no
      inherit_name = no
      inherit_icon = yes
      trigger = { is_hive_empire = yes }
      modifier = {
         planet_jobs_complex_drone_produces_mult = 0.05
      }
      weight = { factor = 1 }
   }

   tradition_swap = {
      name = tr_strength_structural
      inherit_effects = no
      inherit_name = no
      inherit_icon = no
      trigger = { militarist_country_traditions = yes }
      modifier = {
         shipclass_military_station_hull_mult = 0.15
      }
      weight = { factor = 1 }
   }

   tradition_swap = {
      name = tr_prosperity_peak_performance
      inherit_effects = no
      inherit_name = no
      inherit_icon = yes
      trigger = { is_machine_empire = yes }
      modifier = {
         planet_jobs_complex_drone_produces_mult = 0.05
      }
      weight = { factor = 1 }
   }

   tradition_swap = {
      name = tr_mon_cal_construction_converted
      inherit_effects = no
      inherit_name = no
      inherit_icon = no
      trigger = { OR = {
                             has_country_flag = senate_loyalists
                             has_country_flag = rebel_alliance
                             has_country_flag = mon_cala_monarchy
                     } }
      modifier = {
         ship_swp_mon_cal_size_cost_mult = -0.10
      }
      weight = { factor = 1 }
   }

   tradition_swap = {
      name = tr_imperial_designs_tarkin
      inherit_effects = no
      inherit_name = no
      inherit_icon = no
      trigger = { has_country_flag = galactic_empire }
      modifier = {
         ship_swp_star_destroyer_size_cost_mult = -0.10
      }
      weight = { factor = 1 }
   }
   ai_weight = {
      factor = 1000
   }
}

### 
tr_prosperity_finish = {
   modifier = {
      ascension_perks_add = 1
      job_merchant_per_pop = 0.02
   }

   tradition_swap = {
      name = tr_prosperity_finish_hive
      inherit_effects = no
      inherit_name = yes
      inherit_icon = yes
      trigger = { is_hive_empire = yes }
      modifier = {
         ascension_perks_add = 1
         job_synapse_drone_per_pop = 0.05
      }
      weight = { factor = 1 }
   }

   tradition_swap = {
      name = tr_strength_finish
      inherit_effects = no
      inherit_name = yes
      inherit_icon = yes
      trigger = { militarist_country_traditions = yes }
      modifier = {
         ascension_perks_add = 1
         job_soldier_per_pop = 0.05
      }
      weight = { factor = 1 }
   }

   tradition_swap = {
      name = tr_prosperity_finish_machine
      inherit_effects = no
      inherit_name = yes
      inherit_icon = yes
      trigger = { is_machine_empire = yes }
      modifier = {
         ascension_perks_add = 1
         job_coordinator_per_pop = 0.05
      }
      weight = { factor = 1 }
   }

   tradition_swap = {
      name = tr_slave_trade_finish
      inherit_effects = no
      inherit_name = yes
      inherit_icon = yes
      trigger = { slavery_country_traditions = yes }
      modifier = {
         ascension_perks_add = 1
         job_soldier_per_pop = 0.05
      }
      weight = { factor = 1 }
   }

   tradition_swap = {
      name = tr_separatist_finish
      inherit_effects = no
      inherit_name = yes
      inherit_icon = yes
      trigger = { OR = {
                             has_country_flag = banking_clan
                             has_country_flag = commerce_guild
                             has_country_flag = confederate_remnant
                             has_country_flag = trade_federation
                             has_country_flag = corporate_alliance
                             has_country_flag = tion_hegemony
                     } }
      modifier = {
         ascension_perks_add = 1
         planet_buildings_cost_mult = -0.10
         job_merchant_per_pop = 0.02
      }
      weight = { factor = 1 }
   }

   tradition_swap = {
      name = tr_mon_cal_construction_finish
      inherit_effects = no
      inherit_name = yes
      inherit_icon = yes
      trigger = { OR = {
                             has_country_flag = senate_loyalists
                             has_country_flag = rebel_alliance
                             has_country_flag = mon_cala_monarchy
                     } }
      modifier = {
         ascension_perks_add = 1
         planet_jobs_consumer_goods_produces_mult = 0.1
      }
      weight = { factor = 1 }
   }

   tradition_swap = {
      name = tr_imperial_designs_finish
      inherit_effects = no
      inherit_name = yes
      inherit_icon = yes
      trigger = { has_country_flag = galactic_empire }
      modifier = {
         ascension_perks_add = 1
         planet_jobs_consumer_goods_produces_mult = 0.1
      }
      weight = { factor = 1 }
   }

   tradition_swap = {
      name = tr_hapes_construction_finish
      inherit_effects = no
      inherit_name = yes
      inherit_icon = yes
      trigger = { has_country_flag = hapes_consortium }
      modifier = {
         ascension_perks_add = 1
         planet_jobs_consumer_goods_produces_mult = 0.1
      }
      weight = { factor = 1 }
   }

   tradition_swap = {
      name = tr_mando_construction_finish
      inherit_effects = no
      inherit_name = yes
      inherit_icon = yes
      trigger = { has_country_flag = mandalorian_clans }
      modifier = {
         ascension_perks_add = 1
         country_alloys_produces_mult = 0.10
      }
      weight = { factor = 1 }
   }
}

### 
tr_supremacy_adopt = {
   modifier = {
      country_starbase_capacity_add = 3
   }

   tradition_swap = {
      name = tr_supremacy_adopt_hive
      inherit_effects = no
      inherit_name = yes
      inherit_icon = yes
      trigger = { is_hive_empire = yes }
      modifier = {
         country_starbase_capacity_add = 3
      }
      weight = { factor = 1 }
   }

   tradition_swap = {
      name = tr_diversity_adopt
      inherit_effects = no
      inherit_name = yes
      inherit_icon = yes
      trigger = { pacifist_country_traditions = yes }
      modifier = {
         country_unity_produces_mult = 0.10
      }
      weight = { factor = 1 }
   }

   tradition_swap = {
      name = tr_supremacy_adopt_machine
      inherit_effects = no
      inherit_name = yes
      inherit_icon = yes
      trigger = { is_machine_empire = yes }
      modifier = {
         country_starbase_capacity_add = 3
      }
      weight = { factor = 1 }
   }

   tradition_swap = {
      name = tr_imperial_military_adopt
      inherit_effects = no
      inherit_name = yes
      inherit_icon = yes
      trigger = { has_country_flag = galactic_empire }
      modifier = {
         country_starbase_capacity_add = 3
      }
      weight = { factor = 1 }
   }

   tradition_swap = {
      name = tr_criminal_underworld_adopt
      inherit_effects = no
      inherit_name = yes
      inherit_icon = yes
      trigger = { OR = {
                             has_country_flag = hutt_cartel
                             has_country_flag = black_sun_organization
                     } }
      modifier = {
         country_starbase_capacity_add = 2
         country_starbase_influence_cost_mult = -0.10
      }
      weight = { factor = 1 }
   }
   ai_weight = {
      factor = 10
      modifier = {
         factor = 2
         has_ethic = ethic_militarist
      }
      modifier = {
         factor = 3
         has_ethic = ethic_fanatic_militarist
      }
   }
}

### Fleet Logistics Corps
tr_supremacy_fleet_logistical_corps = {
   modifier = {
      ships_upkeep_mult = -0.05
      country_naval_cap_mult = 0.20
   }

   tradition_swap = {
      name = tr_diversity_infrastructure_projects
      inherit_effects = no
      inherit_name = no
      inherit_icon = no
      trigger = { pacifist_country_traditions = yes }
      modifier = {
         planet_structures_cost_mult = -0.15
      }
      weight = { factor = 1 }
   }

   tradition_swap = {
      name = tr_supremacy_fleet_logistical_corps_machine
      inherit_effects = no
      inherit_name = no
      inherit_icon = yes
      trigger = { is_machine_empire = yes }
      modifier = {
         ships_upkeep_mult = -0.05
         country_naval_cap_mult = 0.20
      }
      weight = { factor = 1 }
   }

   tradition_swap = {
      name = tr_imperial_military_admiralty
      inherit_effects = no
      inherit_name = no
      inherit_icon = no
      trigger = { has_country_flag = galactic_empire }
      modifier = {
         admiral_skill_levels = 2
         country_claim_influence_cost_mult = -0.25
      }
      weight = { factor = 1 }
   }

   tradition_swap = {
      name = tr_criminal_underworld_syndicates
      inherit_effects = no
      inherit_name = no
      inherit_icon = no
      trigger = { OR = {
                             has_country_flag = hutt_cartel
                             has_country_flag = black_sun_organization
                     } }
      modifier = {
         ships_upkeep_mult = -0.10
         country_base_influence_produces_add = 1
      }
      weight = { factor = 1 }
   }
   ai_weight = {
      factor = 1000
   }
}

### Master Shipwrights
tr_supremacy_master_shipwrights = {
   modifier = {
      starbase_shipyard_build_cost_mult = -0.10
      country_ship_upgrade_cost_mult = -0.20
   }

   tradition_swap = {
      name = tr_supremacy_master_shipwrights_hive
      inherit_effects = no
      inherit_name = no
      inherit_icon = yes
      trigger = { is_hive_empire = yes }
      modifier = {
         starbase_shipyard_build_cost_mult = -0.10
         country_ship_upgrade_cost_mult = -0.20
      }
      weight = { factor = 1 }
   }

   tradition_swap = {
      name = tr_diversity_education_systems
      inherit_effects = no
      inherit_name = no
      inherit_icon = no
      trigger = { pacifist_country_traditions = yes }
      modifier = {
         species_leader_exp_gain = 0.25
         leader_skill_levels = 1
      }
      weight = { factor = 1 }
   }

   tradition_swap = {
      name = tr_supremacy_master_shipwrights_machine
      inherit_effects = no
      inherit_name = no
      inherit_icon = yes
      trigger = { is_machine_empire = yes }
      modifier = {
         starbase_shipyard_build_cost_mult = -0.10
         country_ship_upgrade_cost_mult = -0.20
      }
      weight = { factor = 1 }
   }

   tradition_swap = {
      name = tr_imperial_military_navy
      inherit_effects = no
      inherit_name = no
      inherit_icon = no
      trigger = { has_country_flag = galactic_empire }
      modifier = {
         country_command_limit_add = 30
         starbase_shipyard_build_cost_mult = -0.10
      }
      weight = { factor = 1 }
   }

   tradition_swap = {
      name = tr_criminal_underworld_retrofitting
      inherit_effects = no
      inherit_name = no
      inherit_icon = no
      trigger = { OR = {
                             has_country_flag = hutt_cartel
                             has_country_flag = black_sun_organization
                     } }
      modifier = {
         country_ship_upgrade_cost_mult = -0.50
         country_command_limit_add = 20
      }
      weight = { factor = 1 }
   }
   ai_weight = {
      factor = 1000
   }
}

### War Games
tr_supremacy_war_games = {
   modifier = {
      country_command_limit_add = 20
      admiral_skill_levels = 2
   }
   possible = {
      has_tradition = tr_supremacy_fleet_logistical_corps
      has_tradition = tr_supremacy_master_shipwrights
   }

   tradition_swap = {
      name = tr_supremacy_war_games_hive
      inherit_effects = no
      inherit_name = no
      inherit_icon = yes
      trigger = { is_hive_empire = yes }
      modifier = {
         country_command_limit_add = 20
         admiral_skill_levels = 2
      }
      weight = { factor = 1 }
   }

   tradition_swap = {
      name = tr_diversity_inspired_inventors
      inherit_effects = no
      inherit_name = no
      inherit_icon = no
      trigger = { pacifist_country_traditions = yes }
      modifier = {
         country_ship_upgrade_cost_mult = -0.50
         starbase_upgrade_cost_mult = -0.50
      }
      weight = { factor = 1 }
   }

   tradition_swap = {
      name = tr_supremacy_war_games_machine
      inherit_effects = no
      inherit_name = no
      inherit_icon = yes
      trigger = { is_machine_empire = yes }
      modifier = {
         country_command_limit_add = 20
         admiral_skill_levels = 2
      }
      weight = { factor = 1 }
   }

   tradition_swap = {
      name = tr_imperial_military_army
      inherit_effects = no
      inherit_name = no
      inherit_icon = no
      trigger = { has_country_flag = galactic_empire }
      modifier = {
         army_damage_mult = 0.10
         armies_cost_mult = -0.10
      }
      weight = { factor = 1 }
   }

   tradition_swap = {
      name = tr_criminal_underworld_mercenary
      inherit_effects = no
      inherit_name = no
      inherit_icon = no
      trigger = { OR = {
                             has_country_flag = hutt_cartel
                             has_country_flag = black_sun_organization
                     } }
      modifier = {
         army_damage_mult = 0.10
         armies_upkeep_mult = -0.10
      }
      weight = { factor = 1 }
   }
   ai_weight = {
      factor = 1000
   }
}

### Overwhelming Force
tr_supremacy_overwhelming_force = {
   modifier = {
      ship_orbital_bombardment_mult = 0.20
      ship_fire_rate_mult = 0.10
   }

   tradition_swap = {
      name = tr_diversity_appealing_society
      inherit_effects = no
      inherit_name = no
      inherit_icon = no
      trigger = { pacifist_country_traditions = yes }
      modifier = {
         pop_government_ethic_attraction = 0.25
         army_defense_damage_mult = 0.10
      }
      weight = { factor = 1 }
   }
   ai_weight = {
      factor = 1000
   }
}

### The Great Game
tr_supremacy_great_game = {
   modifier = {
      shipclass_starbase_damage_mult = 0.20
      starbase_upgrade_cost_mult = -0.33
   }
   possible = {
      has_tradition = tr_supremacy_overwhelming_force
   }

   tradition_swap = {
      name = tr_diversity_enlightened_ideals
      inherit_effects = no
      inherit_name = no
      inherit_icon = no
      trigger = { pacifist_country_traditions = yes }
      modifier = {
         all_technology_research_speed = 0.05
      }
      weight = { factor = 1 }
   }
   ai_weight = {
      factor = 1000
   }
}

### 
tr_supremacy_finish = {

   ### Unlocks War Doctrine policies

   modifier = {
      ascension_perks_add = 1
   }

   tradition_swap = {
      name = tr_diversity_finish
      inherit_effects = no
      inherit_name = yes
      inherit_icon = yes
      trigger = { pacifist_country_traditions = yes }
      modifier = {
         ascension_perks_add = 1
         pop_factions_influence_produces_add = 1
      }
      weight = { factor = 1 }
   }
}
